0.000000	0.000000e+00
0.001957	1.854388e-03
0.003914	3.692645e-03
0.005871	5.512827e-03
0.007828	7.312894e-03
0.009785	9.090810e-03
0.011742	1.084461e-02
0.013699	1.257244e-02
0.015656	1.427261e-02
0.017613	1.594360e-02
0.019569	1.758406e-02
0.021526	1.919285e-02
0.023483	2.076902e-02
0.025440	2.231181e-02
0.027397	2.382065e-02
0.029354	2.529515e-02
0.031311	2.673506e-02
0.033268	2.814032e-02
0.035225	2.951098e-02
0.037182	3.084721e-02
0.039139	3.214932e-02
0.041096	3.341766e-02
0.043053	3.465269e-02
0.045010	3.585493e-02
0.046967	3.702494e-02
0.048924	3.816333e-02
0.050881	3.927071e-02
0.052838	4.034773e-02
0.054795	4.139506e-02
0.056751	4.241334e-02
0.058708	4.340325e-02
0.060665	4.436542e-02
0.062622	4.530051e-02
0.064579	4.620914e-02
0.066536	4.709194e-02
0.068493	4.794951e-02
0.070450	4.878243e-02
0.072407	4.959130e-02
0.074364	5.037667e-02
0.076321	5.113908e-02
0.078278	5.187908e-02
0.080235	5.259719e-02
0.082192	5.329391e-02
0.084149	5.396976e-02
0.086106	5.462522e-02
0.088063	5.526078e-02
0.090020	5.587690e-02
0.091977	5.647405e-02
0.093933	5.705270e-02
0.095890	5.761327e-02
0.097847	5.815623e-02
0.099804	5.868200e-02
0.101761	5.919102e-02
0.103718	5.968370e-02
0.105675	6.016046e-02
0.107632	6.062171e-02
0.109589	6.106785e-02
0.111546	6.149927e-02
0.113503	6.191637e-02
0.115460	6.231953e-02
0.117417	6.270912e-02
0.119374	6.308552e-02
0.121331	6.344908e-02
0.123288	6.380017e-02
0.125245	6.413913e-02
0.127202	6.446630e-02
0.129159	6.478203e-02
0.131115	6.508664e-02
0.133072	6.538045e-02
0.135029	6.566379e-02
0.136986	6.593696e-02
0.138943	6.620026e-02
0.140900	6.645399e-02
0.142857	6.669845e-02
0.144814	6.693391e-02
0.146771	6.716065e-02
0.148728	6.737895e-02
0.150685	6.758906e-02
0.152642	6.779126e-02
0.154599	6.798578e-02
0.156556	6.817288e-02
0.158513	6.835279e-02
0.160470	6.852575e-02
0.162427	6.869199e-02
0.164384	6.885173e-02
0.166341	6.900519e-02
0.168297	6.915258e-02
0.170254	6.929410e-02
0.172211	6.942996e-02
0.174168	6.956034e-02
0.176125	6.968545e-02
0.178082	6.980546e-02
0.180039	6.992055e-02
0.181996	7.003090e-02
0.183953	7.013668e-02
0.185910	7.023804e-02
0.187867	7.033516e-02
0.189824	7.042818e-02
0.191781	7.051726e-02
0.193738	7.060255e-02
0.195695	7.068417e-02
0.197652	7.076228e-02
0.199609	7.083700e-02
0.201566	7.090846e-02
0.203523	7.097679e-02
0.205479	7.104211e-02
0.207436	7.110454e-02
0.209393	7.116418e-02
0.211350	7.122115e-02
0.213307	7.127556e-02
0.215264	7.132750e-02
0.217221	7.137708e-02
0.219178	7.142439e-02
0.221135	7.146952e-02
0.223092	7.151257e-02
0.225049	7.155361e-02
0.227006	7.159274e-02
0.228963	7.163003e-02
0.230920	7.166556e-02
0.232877	7.169940e-02
0.234834	7.173163e-02
0.236791	7.176231e-02
0.238748	7.179152e-02
0.240705	7.181931e-02
0.242661	7.184575e-02
0.244618	7.187089e-02
0.246575	7.189480e-02
0.248532	7.191753e-02
0.250489	7.193913e-02
0.252446	7.195965e-02
0.254403	7.197915e-02
0.256360	7.199766e-02
0.258317	7.201524e-02
0.260274	7.203192e-02
0.262231	7.204775e-02
0.264188	7.206277e-02
0.266145	7.207702e-02
0.268102	7.209053e-02
0.270059	7.210333e-02
0.272016	7.211547e-02
0.273973	7.212697e-02
0.275930	7.213786e-02
0.277886	7.214818e-02
0.279843	7.215795e-02
0.281800	7.216719e-02
0.283757	7.217594e-02
0.285714	7.218422e-02
0.287671	7.219206e-02
0.289628	7.219946e-02
0.291585	7.220647e-02
0.293542	7.221309e-02
0.295499	7.221935e-02
0.297456	7.222526e-02
0.299413	7.223084e-02
0.301370	7.223612e-02
0.303327	7.224110e-02
0.305284	7.224580e-02
0.307241	7.225024e-02
0.309198	7.225443e-02
0.311155	7.225838e-02
0.313112	7.226211e-02
0.315068	7.226563e-02
0.317025	7.226894e-02
0.318982	7.227207e-02
0.320939	7.227501e-02
0.322896	7.227779e-02
0.324853	7.228041e-02
0.326810	7.228288e-02
0.328767	7.228520e-02
0.330724	7.228739e-02
0.332681	7.228945e-02
0.334638	7.229139e-02
0.336595	7.229322e-02
0.338552	7.229494e-02
0.340509	7.229656e-02
0.342466	7.229809e-02
0.344423	7.229952e-02
0.346380	7.230087e-02
0.348337	7.230215e-02
0.350294	7.230335e-02
0.352250	7.230447e-02
0.354207	7.230554e-02
0.356164	7.230653e-02
0.358121	7.230748e-02
0.360078	7.230836e-02
0.362035	7.230919e-02
0.363992	7.230998e-02
0.365949	7.231072e-02
0.367906	7.231142e-02
0.369863	7.231207e-02
0.371820	7.231269e-02
0.373777	7.231327e-02
0.375734	7.231382e-02
0.377691	7.231434e-02
0.379648	7.231482e-02
0.381605	7.231528e-02
0.383562	7.231572e-02
0.385519	7.231613e-02
0.387476	7.231651e-02
0.389432	7.231688e-02
0.391389	7.231722e-02
0.393346	7.231755e-02
0.395303	7.231786e-02
0.397260	7.231815e-02
0.399217	7.231842e-02
0.401174	7.231869e-02
0.403131	7.231893e-02
0.405088	7.231917e-02
0.407045	7.231939e-02
0.409002	7.231960e-02
0.410959	7.231980e-02
0.412916	7.231999e-02
0.414873	7.232016e-02
0.416830	7.232033e-02
0.418787	7.232050e-02
0.420744	7.232065e-02
0.422701	7.232080e-02
0.424658	7.232093e-02
0.426614	7.232107e-02
0.428571	7.232119e-02
0.430528	7.232131e-02
0.432485	7.232142e-02
0.434442	7.232153e-02
0.436399	7.232163e-02
0.438356	7.232173e-02
0.440313	7.232183e-02
0.442270	7.232191e-02
0.444227	7.232200e-02
0.446184	7.232208e-02
0.448141	7.232215e-02
0.450098	7.232223e-02
0.452055	7.232229e-02
0.454012	7.232236e-02
0.455969	7.232242e-02
0.457926	7.232248e-02
0.459883	7.232253e-02
0.461840	7.232259e-02
0.463796	7.232263e-02
0.465753	7.232268e-02
0.467710	7.232272e-02
0.469667	7.232276e-02
0.471624	7.232280e-02
0.473581	7.232283e-02
0.475538	7.232287e-02
0.477495	7.232290e-02
0.479452	7.232292e-02
0.481409	7.232295e-02
0.483366	7.232297e-02
0.485323	7.232299e-02
0.487280	7.232300e-02
0.489237	7.232302e-02
0.491194	7.232303e-02
0.493151	7.232304e-02
0.495108	7.232305e-02
0.497065	7.232305e-02
0.499022	7.232305e-02
0.500978	7.232305e-02
0.502935	7.232305e-02
0.504892	7.232305e-02
0.506849	7.232304e-02
0.508806	7.232303e-02
0.510763	7.232302e-02
0.512720	7.232300e-02
0.514677	7.232299e-02
0.516634	7.232297e-02
0.518591	7.232295e-02
0.520548	7.232292e-02
0.522505	7.232290e-02
0.524462	7.232287e-02
0.526419	7.232283e-02
0.528376	7.232280e-02
0.530333	7.232276e-02
0.532290	7.232272e-02
0.534247	7.232268e-02
0.536204	7.232263e-02
0.538160	7.232259e-02
0.540117	7.232253e-02
0.542074	7.232248e-02
0.544031	7.232242e-02
0.545988	7.232236e-02
0.547945	7.232229e-02
0.549902	7.232223e-02
0.551859	7.232215e-02
0.553816	7.232208e-02
0.555773	7.232200e-02
0.557730	7.232191e-02
0.559687	7.232183e-02
0.561644	7.232173e-02
0.563601	7.232163e-02
0.565558	7.232153e-02
0.567515	7.232142e-02
0.569472	7.232131e-02
0.571429	7.232119e-02
0.573386	7.232107e-02
0.575342	7.232093e-02
0.577299	7.232080e-02
0.579256	7.232065e-02
0.581213	7.232050e-02
0.583170	7.232033e-02
0.585127	7.232016e-02
0.587084	7.231999e-02
0.589041	7.231980e-02
0.590998	7.231960e-02
0.592955	7.231939e-02
0.594912	7.231917e-02
0.596869	7.231893e-02
0.598826	7.231869e-02
0.600783	7.231842e-02
0.602740	7.231815e-02
0.604697	7.231786e-02
0.606654	7.231755e-02
0.608611	7.231722e-02
0.610568	7.231688e-02
0.612524	7.231651e-02
0.614481	7.231613e-02
0.616438	7.231572e-02
0.618395	7.231528e-02
0.620352	7.231482e-02
0.622309	7.231434e-02
0.624266	7.231382e-02
0.626223	7.231327e-02
0.628180	7.231269e-02
0.630137	7.231207e-02
0.632094	7.231142e-02
0.634051	7.231072e-02
0.636008	7.230998e-02
0.637965	7.230919e-02
0.639922	7.230836e-02
0.641879	7.230748e-02
0.643836	7.230653e-02
0.645793	7.230554e-02
0.647750	7.230447e-02
0.649706	7.230335e-02
0.651663	7.230215e-02
0.653620	7.230087e-02
0.655577	7.229952e-02
0.657534	7.229809e-02
0.659491	7.229656e-02
0.661448	7.229494e-02
0.663405	7.229322e-02
0.665362	7.229139e-02
0.667319	7.228945e-02
0.669276	7.228739e-02
0.671233	7.228520e-02
0.673190	7.228288e-02
0.675147	7.228041e-02
0.677104	7.227779e-02
0.679061	7.227501e-02
0.681018	7.227207e-02
0.682975	7.226894e-02
0.684932	7.226563e-02
0.686888	7.226211e-02
0.688845	7.225838e-02
0.690802	7.225443e-02
0.692759	7.225024e-02
0.694716	7.224580e-02
0.696673	7.224110e-02
0.698630	7.223612e-02
0.700587	7.223084e-02
0.702544	7.222526e-02
0.704501	7.221935e-02
0.706458	7.221309e-02
0.708415	7.220647e-02
0.710372	7.219946e-02
0.712329	7.219206e-02
0.714286	7.218422e-02
0.716243	7.217594e-02
0.718200	7.216719e-02
0.720157	7.215795e-02
0.722114	7.214818e-02
0.724070	7.213786e-02
0.726027	7.212697e-02
0.727984	7.211547e-02
0.729941	7.210333e-02
0.731898	7.209053e-02
0.733855	7.207702e-02
0.735812	7.206277e-02
0.737769	7.204775e-02
0.739726	7.203192e-02
0.741683	7.201524e-02
0.743640	7.199766e-02
0.745597	7.197915e-02
0.747554	7.195965e-02
0.749511	7.193913e-02
0.751468	7.191753e-02
0.753425	7.189480e-02
0.755382	7.187089e-02
0.757339	7.184575e-02
0.759295	7.181931e-02
0.761252	7.179152e-02
0.763209	7.176231e-02
0.765166	7.173163e-02
0.767123	7.169940e-02
0.769080	7.166556e-02
0.771037	7.163003e-02
0.772994	7.159274e-02
0.774951	7.155361e-02
0.776908	7.151257e-02
0.778865	7.146952e-02
0.780822	7.142439e-02
0.782779	7.137708e-02
0.784736	7.132750e-02
0.786693	7.127556e-02
0.788650	7.122115e-02
0.790607	7.116418e-02
0.792564	7.110454e-02
0.794521	7.104211e-02
0.796477	7.097679e-02
0.798434	7.090846e-02
0.800391	7.083700e-02
0.802348	7.076228e-02
0.804305	7.068417e-02
0.806262	7.060255e-02
0.808219	7.051726e-02
0.810176	7.042818e-02
0.812133	7.033516e-02
0.814090	7.023804e-02
0.816047	7.013668e-02
0.818004	7.003090e-02
0.819961	6.992055e-02
0.821918	6.980546e-02
0.823875	6.968545e-02
0.825832	6.956034e-02
0.827789	6.942996e-02
0.829746	6.929410e-02
0.831703	6.915258e-02
0.833659	6.900519e-02
0.835616	6.885173e-02
0.837573	6.869199e-02
0.839530	6.852575e-02
0.841487	6.835279e-02
0.843444	6.817288e-02
0.845401	6.798578e-02
0.847358	6.779126e-02
0.849315	6.758906e-02
0.851272	6.737895e-02
0.853229	6.716065e-02
0.855186	6.693391e-02
0.857143	6.669845e-02
0.859100	6.645399e-02
0.861057	6.620026e-02
0.863014	6.593696e-02
0.864971	6.566379e-02
0.866928	6.538045e-02
0.868885	6.508664e-02
0.870841	6.478203e-02
0.872798	6.446630e-02
0.874755	6.413913e-02
0.876712	6.380017e-02
0.878669	6.344908e-02
0.880626	6.308552e-02
0.882583	6.270912e-02
0.884540	6.231953e-02
0.886497	6.191637e-02
0.888454	6.149927e-02
0.890411	6.106785e-02
0.892368	6.062171e-02
0.894325	6.016046e-02
0.896282	5.968370e-02
0.898239	5.919102e-02
0.900196	5.868200e-02
0.902153	5.815623e-02
0.904110	5.761327e-02
0.906067	5.705270e-02
0.908023	5.647405e-02
0.909980	5.587690e-02
0.911937	5.526078e-02
0.913894	5.462522e-02
0.915851	5.396976e-02
0.917808	5.329391e-02
0.919765	5.259719e-02
0.921722	5.187908e-02
0.923679	5.113908e-02
0.925636	5.037667e-02
0.927593	4.959130e-02
0.929550	4.878243e-02
0.931507	4.794951e-02
0.933464	4.709194e-02
0.935421	4.620914e-02
0.937378	4.530051e-02
0.939335	4.436542e-02
0.941292	4.340325e-02
0.943249	4.241334e-02
0.945205	4.139506e-02
0.947162	4.034773e-02
0.949119	3.927071e-02
0.951076	3.816333e-02
0.953033	3.702494e-02
0.954990	3.585493e-02
0.956947	3.465269e-02
0.958904	3.341766e-02
0.960861	3.214932e-02
0.962818	3.084721e-02
0.964775	2.951098e-02
0.966732	2.814032e-02
0.968689	2.673506e-02
0.970646	2.529515e-02
0.972603	2.382065e-02
0.974560	2.231181e-02
0.976517	2.076902e-02
0.978474	1.919285e-02
0.980431	1.758406e-02
0.982387	1.594360e-02
0.984344	1.427261e-02
0.986301	1.257244e-02
0.988258	1.084461e-02
0.990215	9.090810e-03
0.992172	7.312894e-03
0.994129	5.512827e-03
0.996086	3.692645e-03
0.998043	1.854388e-03
1.000000	0.000000e+00
