0.0000000000e+00,0.0000000000e+00
3.2258064516e-02,-2.1480528126e-02
6.4516129032e-02,-4.0308626434e-02
9.6774193548e-02,-5.7194589574e-02
1.2903225806e-01,-7.2680301103e-02
1.6129032258e-01,-8.7184525447e-02
1.9354838710e-01,-1.0102381275e-01
2.2580645161e-01,-1.1442521523e-01
2.5806451613e-01,-1.2753205147e-01
2.9032258065e-01,-1.4040411835e-01
3.2258064516e-01,-1.5301345072e-01
3.5483870968e-01,-1.6523642530e-01
3.8709677419e-01,-1.7684278230e-01
4.1935483871e-01,-1.8748204544e-01
4.5161290323e-01,-1.9666787666e-01
4.8387096774e-01,-2.0376111774e-01
5.1612903226e-01,-2.0795265577e-01
5.4838709677e-01,-2.0824781464e-01
5.8064516129e-01,-2.0345472894e-01
6.1290322581e-01,-1.9218008824e-01
6.4516129032e-01,-1.7283670202e-01
6.7741935484e-01,-1.4366841599e-01
7.0967741935e-01,-1.0279879554e-01
7.4193548387e-01,-4.8310325571e-02
7.7419354839e-01,2.1639890005e-02
8.0645161290e-01,1.0866458069e-01
8.3870967742e-01,2.1395301745e-01
8.7096774194e-01,3.3805124444e-01
9.0322580645e-01,4.8064027003e-01
9.3548387097e-01,6.4035259477e-01
9.6774193548e-01,8.1468396019e-01
1.0000000000e+00,1.0000000000e+00
