-1.574296e-02,0.000000e+00,0.000000e+00,0.000000e+00,-2.788527e-17,-2.774528e-17,0.000000e+00,0.000000e+00,2.774596e-17,2.771490e-17,-2.773233e-17,-2.773908e-17,0.000000e+00,0.000000e+00,0.000000e+00,0.000000e+00,0.000000e+00,0.000000e+00,0.000000e+00,0.000000e+00,0.000000e+00,-5.553084e-17,0.000000e+00,0.000000e+00,-2.776883e-17,0.000000e+00,-5.552772e-17,0.000000e+00,0.000000e+00,2.773997e-17,-2.772697e-17,0.000000e+00,0.000000e+00,0.000000e+00,2.761019e-17,0.000000e+00,-2.752063e-17,0.000000e+00,0.000000e+00,0.000000e+00,1.576253e-02,
-2.822141e-17,1.564814e-02,1.796067e-02,5.391803e-03,1.296720e-03,3.138305e-03,2.205453e-03,9.297804e-04,1.398243e-03,1.359384e-03,8.995427e-04,8.414974e-04,8.508320e-04,6.982061e-04,6.132642e-04,5.819248e-04,5.110428e-04,4.405566e-04,3.915594e-04,3.342516e-04,2.698842e-04,2.082754e-04,1.427845e-04,7.182369e-05,-6.838704e-06,-8.910051e-05,-1.747377e-04,-2.878875e-04,-3.890378e-04,-4.941860e-04,-7.086665e-04,-7.836075e-04,-1.051681e-03,-1.435743e-03,-1.411158e-03,-2.691674e-03,-3.705388e-03,-4.102774e-03,-1.694681e-02,-1.888280e-02,0.000000e+00,
0.000000e+00,1.277935e-02,2.540670e-02,1.423315e-02,9.258546e-03,8.684387e-03,6.923785e-03,5.070970e-03,4.758410e-03,4.285071e-03,3.615889e-03,3.236395e-03,2.971622e-03,2.642770e-03,2.382807e-03,2.174761e-03,1.955160e-03,1.742028e-03,1.545873e-03,1.343334e-03,1.131376e-03,9.130784e-04,6.808848e-04,4.320872e-04,1.600810e-04,-1.353317e-04,-4.525703e-04,-8.219884e-04,-1.218958e-03,-1.641923e-03,-2.239894e-03,-2.765591e-03,-3.568844e-03,-4.704745e-03,-5.628448e-03,-8.166438e-03,-1.192380e-02,-1.462364e-02,-3.081010e-02,-2.734575e-02,-2.687241e-17,
-2.755331e-17,1.857803e-02,2.554172e-02,2.098198e-02,1.841249e-02,1.402843e-02,1.184657e-02,1.041245e-02,8.974059e-03,7.857450e-03,7.167064e-03,6.451134e-03,5.809902e-03,5.307168e-03,4.851797e-03,4.408821e-03,4.005889e-03,3.619452e-03,3.229713e-03,2.836299e-03,2.432377e-03,2.006161e-03,1.550570e-03,1.061300e-03,5.292459e-04,-5.718245e-05,-6.992949e-04,-1.412822e-03,-2.228643e-03,-3.114354e-03,-4.201887e-03,-5.453439e-03,-6.926306e-03,-9.047887e-03,-1.176955e-02,-1.514020e-02,-2.219068e-02,-2.903274e-02,-3.920319e-02,-3.599339e-02,0.000000e+00,
0.000000e+00,1.654065e-02,2.106283e-02,2.274593e-02,2.176866e-02,1.811737e-02,1.639091e-02,1.467022e-02,1.295930e-02,1.168669e-02,1.071144e-02,9.751480e-03,8.932880e-03,8.223255e-03,7.557406e-03,6.932132e-03,6.345823e-03,5.767021e-03,5.185189e-03,4.593572e-03,3.977332e-03,3.324144e-03,2.623995e-03,1.865314e-03,1.037513e-03,1.240355e-04,-8.898921e-04,-2.009887e-03,-3.290905e-03,-4.728367e-03,-6.400226e-03,-8.412934e-03,-1.077167e-02,-1.384806e-02,-1.819162e-02,-2.292155e-02,-3.084206e-02,-3.965655e-02,-4.251731e-02,-3.456080e-02,-2.739955e-17,
2.784421e-17,1.228539e-02,1.814119e-02,2.230512e-02,2.214431e-02,2.102434e-02,1.955650e-02,1.761562e-02,1.630587e-02,1.507945e-02,1.383465e-02,1.279020e-02,1.189739e-02,1.101630e-02,1.019612e-02,9.433948e-03,8.683425e-03,7.931995e-03,7.176163e-03,6.393974e-03,5.569113e-03,4.690609e-03,3.743067e-03,2.708901e-03,1.573009e-03,3.192436e-04,-1.079778e-03,-2.639551e-03,-4.407164e-03,-6.419604e-03,-8.724556e-03,-1.148123e-02,-1.484423e-02,-1.876418e-02,-2.405347e-02,-3.061875e-02,-3.788306e-02,-4.438287e-02,-4.292599e-02,-3.058951e-02,0.000000e+00,
0.000000e+00,1.053041e-02,1.794105e-02,2.094460e-02,2.163831e-02,2.211199e-02,2.117274e-02,1.987520e-02,1.881377e-02,1.759939e-02,1.645076e-02,1.542906e-02,1.444300e-02,1.348826e-02,1.259223e-02,1.171254e-02,1.083219e-02,9.946096e-03,9.034894e-03,8.078164e-03,7.062427e-03,5.970246e-03,4.782519e-03,3.480599e-03,2.042603e-03,4.486840e-04,-1.331915e-03,-3.328781e-03,-5.581581e-03,-8.155300e-03,-1.111284e-02,-1.453788e-02,-1.870725e-02,-2.357498e-02,-2.938923e-02,-3.641217e-02,-4.263936e-02,-4.618092e-02,-4.342269e-02,-2.840539e-02,0.000000e+00,
0.000000e+00,9.029437e-03,1.583191e-02,1.926927e-02,2.146820e-02,2.218203e-02,2.188147e-02,2.138359e-02,2.048372e-02,1.945242e-02,1.851793e-02,1.752530e-02,1.652116e-02,1.556892e-02,1.462515e-02,1.366295e-02,1.269384e-02,1.169839e-02,1.065293e-02,9.544363e-03,8.355803e-03,7.065047e-03,5.651671e-03,4.095198e-03,2.369650e-03,4.486182e-04,-1.699863e-03,-4.113054e-03,-6.831117e-03,-9.919569e-03,-1.348218e-02,-1.753644e-02,-2.225492e-02,-2.782286e-02,-3.394994e-02,-4.028165e-02,-4.542192e-02,-4.651725e-02,-4.160275e-02,-2.586458e-02,0.000000e+00,
0.000000e+00,7.958280e-03,1.383219e-02,1.816521e-02,2.088907e-02,2.179636e-02,2.220545e-02,2.213056e-02,2.153645e-02,2.081898e-02,2.000605e-02,1.909102e-02,1.817098e-02,1.723129e-02,1.625528e-02,1.525647e-02,1.422486e-02,1.313645e-02,1.198016e-02,1.074018e-02,9.394280e-03,7.921687e-03,6.300382e-03,4.505515e-03,2.509724e-03,2.833800e-04,-2.207001e-03,-5.003470e-03,-8.155303e-03,-1.170230e-02,-1.574028e-02,-2.033498e-02,-2.548686e-02,-3.126150e-02,-3.731373e-02,-4.269751e-02,-4.646598e-02,-4.574369e-02,-3.845961e-02,-2.333343e-02,0.000000e+00,
0.000000e+00,7.362905e-03,1.308229e-02,1.721161e-02,1.981361e-02,2.141563e-02,2.229716e-02,2.238451e-02,2.215436e-02,2.170484e-02,2.101456e-02,2.023274e-02,1.939552e-02,1.847604e-02,1.750669e-02,1.649156e-02,1.540833e-02,1.424765e-02,1.299959e-02,1.164230e-02,1.015487e-02,8.517106e-03,6.704497e-03,4.690189e-03,2.445768e-03,-6.037715e-05,-2.862456e-03,-5.998120e-03,-9.521364e-03,-1.346800e-02,-1.787597e-02,-2.281326e-02,-2.822305e-02,-3.389404e-02,-3.951174e-02,-4.396521e-02,-4.601459e-02,-4.393441e-02,-3.581287e-02,-2.122849e-02,2.768993e-17,
0.000000e+00,6.736640e-03,1.222332e-02,1.621541e-02,1.901722e-02,2.097276e-02,2.199843e-02,2.239208e-02,2.246103e-02,2.216826e-02,2.164723e-02,2.099928e-02,2.022297e-02,1.935099e-02,1.840717e-02,1.737719e-02,1.625707e-02,1.504189e-02,1.371299e-02,1.225099e-02,1.063785e-02,8.850437e-03,6.863151e-03,4.649769e-03,2.181647e-03,-5.730061e-04,-3.649553e-03,-7.078675e-03,-1.089784e-02,-1.514678e-02,-1.982794e-02,-2.491968e-02,-3.034079e-02,-3.573022e-02,-4.061596e-02,-4.408492e-02,-4.469349e-02,-4.138401e-02,-3.302335e-02,-1.901486e-02,0.000000e+00,
0.000000e+00,6.279618e-03,1.140633e-02,1.542041e-02,1.838612e-02,2.034807e-02,2.154601e-02,2.225267e-02,2.247175e-02,2.231996e-02,2.196768e-02,2.142062e-02,2.071378e-02,1.989842e-02,1.897442e-02,1.793893e-02,1.679627e-02,1.553345e-02,1.413323e-02,1.258046e-02,1.085499e-02,8.932896e-03,6.789926e-03,4.399940e-03,1.734690e-03,-1.233881e-03,-4.536944e-03,-8.202695e-03,-1.224848e-02,-1.668859e-02,-2.150758e-02,-2.660134e-02,-3.181398e-02,-3.677078e-02,-4.080866e-02,-4.317732e-02,-4.276016e-02,-3.851108e-02,-2.994278e-02,-1.688651e-02,0.000000e+00,
0.000000e+00,5.979473e-03,1.089204e-02,1.474928e-02,1.765588e-02,1.969442e-02,2.108292e-02,2.190067e-02,2.223195e-02,2.225133e-02,2.201164e-02,2.154226e-02,2.091425e-02,2.014599e-02,1.924036e-02,1.820918e-02,1.704801e-02,1.574304e-02,1.428302e-02,1.265121e-02,1.082603e-02,8.785828e-03,6.507585e-03,3.966080e-03,1.135231e-03,-2.008991e-03,-5.488167e-03,-9.321563e-03,-1.351351e-02,-1.804085e-02,-2.285469e-02,-2.781160e-02,-3.265422e-02,-3.701378e-02,-4.023893e-02,-4.155609e-02,-4.024275e-02,-3.548009e-02,-2.703152e-02,-1.501479e-02,-2.771505e-17,
0.000000e+00,5.664931e-03,1.037072e-02,1.409573e-02,1.694972e-02,1.905540e-02,2.050551e-02,2.137976e-02,2.184374e-02,2.197528e-02,2.180581e-02,2.141848e-02,2.085599e-02,2.012325e-02,1.924037e-02,1.821435e-02,1.703611e-02,1.569766e-02,1.418725e-02,1.248650e-02,1.057633e-02,8.436626e-03,6.045025e-03,3.379484e-03,4.189156e-04,-2.855948e-03,-6.457440e-03,-1.038798e-02,-1.463553e-02,-1.914835e-02,-2.383005e-02,-2.851579e-02,-3.289722e-02,-3.655932e-02,-3.897831e-02,-3.943818e-02,-3.737118e-02,-3.233554e-02,-2.422527e-02,-1.323817e-02,0.000000e+00,
2.774797e-17,5.386051e-03,9.862170e-03,1.347742e-02,1.627887e-02,1.835992e-02,1.981784e-02,2.077007e-02,2.131405e-02,2.149706e-02,2.140088e-02,2.108479e-02,2.056408e-02,1.986431e-02,1.900428e-02,1.798070e-02,1.678970e-02,1.542494e-02,1.387196e-02,1.211442e-02,1.013546e-02,7.915825e-03,5.435835e-03,2.677502e-03,-3.744693e-04,-3.731147e-03,-7.394984e-03,-1.135134e-02,-1.556537e-02,-1.996481e-02,-2.441346e-02,-2.871284e-02,-3.256621e-02,-3.553685e-02,-3.716387e-02,-3.692114e-02,-3.434362e-02,-2.919200e-02,-2.150690e-02,-1.158395e-02,0.000000e+00,
0.000000e+00,5.140983e-03,9.415721e-03,1.287062e-02,1.557637e-02,1.761331e-02,1.907751e-02,2.006350e-02,2.063463e-02,2.086704e-02,2.083213e-02,2.055662e-02,2.007032e-02,1.940271e-02,1.855851e-02,1.753719e-02,1.633844e-02,1.495267e-02,1.336642e-02,1.156596e-02,9.535143e-03,7.257032e-03,4.716287e-03,1.899509e-03,-1.202369e-03,-4.590305e-03,-8.254485e-03,-1.216544e-02,-1.626470e-02,-2.045885e-02,-2.459477e-02,-2.844200e-02,-3.171547e-02,-3.403298e-02,-3.496688e-02,-3.413743e-02,-3.123907e-02,-2.614104e-02,-1.899231e-02,-1.010425e-02,0.000000e+00,
0.000000e+00,4.882990e-03,8.952823e-03,1.225000e-02,1.485017e-02,1.683102e-02,1.827343e-02,1.925265e-02,1.984259e-02,2.011435e-02,2.010925e-02,1.986203e-02,1.940922e-02,1.876409e-02,1.793083e-02,1.691470e-02,1.571153e-02,1.431091e-02,1.270244e-02,1.087334e-02,8.809092e-03,6.496486e-03,3.924387e-03,1.085061e-03,-2.022994e-03,-5.390786e-03,-8.995058e-03,-1.279241e-02,-1.670693e-02,-2.062263e-02,-2.437954e-02,-2.774674e-02,-3.043884e-02,-3.213954e-02,-3.250151e-02,-3.122676e-02,-2.814666e-02,-2.322679e-02,-1.666748e-02,-8.760480e-03,0.000000e+00,
2.773851e-17,4.622495e-03,8.475720e-03,1.161629e-02,1.410097e-02,1.600356e-02,1.740059e-02,1.836324e-02,1.896052e-02,1.924452e-02,1.925584e-02,1.903493e-02,1.860429e-02,1.797345e-02,1.715257e-02,1.614319e-02,1.493858e-02,1.353151e-02,1.191266e-02,1.007005e-02,7.992529e-03,5.670723e-03,3.097902e-03,2.728577e-04,-2.797647e-03,-6.095275e-03,-9.584309e-03,-1.320712e-02,-1.687706e-02,-2.046513e-02,-2.380240e-02,-2.667661e-02,-2.882525e-02,-2.997319e-02,-2.986521e-02,-2.828545e-02,-2.514890e-02,-2.048888e-02,-1.452517e-02,-7.549838e-03,-2.772867e-17,
0.000000e+00,4.360454e-03,7.996759e-03,1.096284e-02,1.331810e-02,1.513243e-02,1.647385e-02,1.740838e-02,1.799374e-02,1.827709e-02,1.830124e-02,1.809607e-02,1.767794e-02,1.706127e-02,1.625313e-02,1.525098e-02,1.405084e-02,1.264689e-02,1.102979e-02,9.190255e-03,7.120674e-03,4.815375e-03,2.272841e-03,-5.015339e-04,-3.492920e-03,-6.673853e-03,-9.998920e-03,-1.339866e-02,-1.677736e-02,-2.000509e-02,-2.291243e-02,-2.530203e-02,-2.695373e-02,-2.763609e-02,-2.715931e-02,-2.538753e-02,-2.229309e-02,-1.795335e-02,-1.259138e-02,-6.478900e-03,-2.772980e-17,
0.000000e+00,4.086090e-03,7.498421e-03,1.028593e-02,1.250667e-02,1.422447e-02,1.550046e-02,1.639448e-02,1.695794e-02,1.723581e-02,1.726370e-02,1.706503e-02,1.665824e-02,1.605534e-02,1.525872e-02,1.426768e-02,1.307974e-02,1.168836e-02,1.008622e-02,8.267354e-03,6.227064e-03,3.963848e-03,1.481786e-03,-1.207602e-03,-4.082278e-03,-7.106218e-03,-1.022641e-02,-1.336708e-02,-1.642624e-02,-1.927637e-02,-2.176105e-02,-2.369964e-02,-2.490904e-02,-2.521069e-02,-2.446510e-02,-2.259494e-02,-1.961587e-02,-1.563012e-02,-1.085489e-02,-5.530583e-03,0.000000e+00,
-2.773086e-17,3.803229e-03,6.983932e-03,9.589832e-03,1.167064e-02,1.328427e-02,1.448775e-02,1.533445e-02,1.587077e-02,1.613628e-02,1.616062e-02,1.596647e-02,1.557019e-02,1.497926e-02,1.419657e-02,1.322278e-02,1.205433e-02,1.068591e-02,9.113153e-03,7.332463e-03,5.342344e-03,3.145856e-03,7.522030e-04,-1.821376e-03,-4.546771e-03,-7.381528e-03,-1.026650e-02,-1.312334e-02,-1.585060e-02,-1.832473e-02,-2.040581e-02,-2.193879e-02,-2.277133e-02,-2.277058e-02,-2.184286e-02,-1.995139e-02,-1.714149e-02,-1.352381e-02,-9.302874e-03,-4.695385e-03,0.000000e+00,
-2.772861e-17,3.514286e-03,6.459849e-03,8.877611e-03,1.081342e-02,1.231958e-02,1.344650e-02,1.424140e-02,1.474581e-02,1.499403e-02,1.501270e-02,1.482211e-02,1.443471e-02,1.385723e-02,1.309333e-02,1.214247e-02,1.100160e-02,9.667883e-03,8.138813e-03,6.413142e-03,4.493189e-03,2.386128e-03,1.055152e-04,-2.326288e-03,-4.876127e-03,-7.497638e-03,-1.012844e-02,-1.268933e-02,-1.508402e-02,-1.719834e-02,-1.890769e-02,-2.008413e-02,-2.060656e-02,-2.037709e-02,-1.933945e-02,-1.748587e-02,-1.487905e-02,-1.163147e-02,-7.930225e-03,-3.966704e-03,0.000000e+00,
0.000000e+00,3.219041e-03,5.925902e-03,8.153639e-03,9.942949e-03,1.133930e-02,1.238674e-02,1.312712e-02,1.359689e-02,1.382604e-02,1.383820e-02,1.365022e-02,1.327276e-02,1.271248e-02,1.197191e-02,1.105037e-02,9.946609e-03,8.659239e-03,7.187401e-03,5.532859e-03,3.701311e-03,1.703398e-03,-4.434506e-04,-2.712978e-03,-5.068412e-03,-7.461036e-03,-9.828435e-03,-1.209337e-02,-1.416588e-02,-1.594492e-02,-1.732281e-02,-1.819470e-02,-1.846884e-02,-1.807611e-02,-1.698739e-02,-1.521537e-02,-1.283073e-02,-9.943549e-03,-6.722103e-03,-3.332347e-03,-2.772784e-17,
0.000000e+00,2.920912e-03,5.387185e-03,7.424646e-03,9.066852e-03,1.035210e-02,1.131904e-02,1.200387e-02,1.243801e-02,1.264762e-02,1.265302e-02,1.246858e-02,1.210397e-02,1.156464e-02,1.085251e-02,9.967963e-03,8.910768e-03,7.680612e-03,6.278947e-03,4.710235e-03,2.982764e-03,1.110245e-03,-8.866508e-04,-2.979084e-03,-5.128458e-03,-7.285197e-03,-9.388612e-03,-1.136648e-02,-1.313664e-02,-1.461101e-02,-1.570005e-02,-1.631949e-02,-1.640141e-02,-1.590048e-02,-1.480668e-02,-1.314627e-02,-1.099234e-02,-8.447968e-03,-5.662921e-03,-2.782096e-03,-2.772696e-17,
0.000000e+00,2.623130e-03,4.849849e-03,6.697217e-03,8.192667e-03,9.367480e-03,1.025425e-02,1.088340e-02,1.128200e-02,1.147249e-02,1.147217e-02,1.129351e-02,1.094482e-02,1.043060e-02,9.753020e-03,8.913080e-03,7.911183e-03,6.748614e-03,5.428886e-03,3.958446e-03,2.347895e-03,6.134018e-04,-1.222239e-03,-3.128611e-03,-5.066690e-03,-6.987970e-03,-8.834713e-03,-1.054099e-02,-1.203422e-02,-1.323867e-02,-1.408134e-02,-1.449679e-02,-1.443592e-02,-1.387169e-02,-1.280763e-02,-1.127755e-02,-9.353633e-03,-7.130333e-03,-4.739608e-03,-2.307118e-03,0.000000e+00,
0.000000e+00,2.328201e-03,4.318172e-03,5.978112e-03,7.328994e-03,8.394892e-03,9.202452e-03,9.776815e-03,1.014085e-02,1.031333e-02,1.030909e-02,1.013878e-02,9.809367e-03,9.324990e-03,8.687988e-03,7.899593e-03,6.961198e-03,5.875580e-03,4.647652e-03,3.285528e-03,1.801745e-03,2.140636e-04,-1.453643e-03,-3.170420e-03,-4.897850e-03,-6.589917e-03,-8.193239e-03,-9.648541e-03,-1.089307e-02,-1.186337e-02,-1.250065e-02,-1.275536e-02,-1.259362e-02,-1.200172e-02,-1.099233e-02,-9.602759e-03,-7.901697e-03,-5.974755e-03,-3.937443e-03,-1.897888e-03,0.000000e+00,
0.000000e+00,2.039415e-03,3.797641e-03,5.274442e-03,6.483996e-03,7.443289e-03,8.173465e-03,8.694540e-03,9.025385e-03,9.181489e-03,9.175350e-03,9.016017e-03,8.709486e-03,8.259524e-03,7.668457e-03,6.937969e-03,6.070363e-03,5.069384e-03,3.941085e-03,2.694929e-03,1.344602e-03,-9.130426e-05,-1.588567e-03,-3.116780e-03,-4.639172e-03,-6.112920e-03,-7.489876e-03,-8.717821e-03,-9.743181e-03,-1.051394e-02,-1.098356e-02,-1.111525e-02,-1.088720e-02,-1.029502e-02,-9.356914e-03,-8.111361e-03,-6.622041e-03,-4.965429e-03,-3.242304e-03,-1.546028e-03,0.000000e+00,
0.000000e+00,1.759993e-03,3.293908e-03,4.593003e-03,5.665383e-03,6.521296e-03,7.176528e-03,7.646125e-03,7.945292e-03,8.086771e-03,8.080814e-03,7.934972e-03,7.654604e-03,7.243033e-03,6.702576e-03,6.035419e-03,5.244424e-03,4.334001e-03,3.311106e-03,2.185974e-03,9.727524e-04,-3.097858e-04,-1.637803e-03,-2.982251e-03,-4.308851e-03,-5.578524e-03,-6.748517e-03,-7.773768e-03,-8.609250e-03,-9.212756e-03,-9.548203e-03,-9.589056e-03,-9.322371e-03,-8.750145e-03,-7.893654e-03,-6.790657e-03,-5.499169e-03,-4.086953e-03,-2.641674e-03,-1.244118e-03,0.000000e+00,
0.000000e+00,1.492625e-03,2.811506e-03,3.940204e-03,4.880798e-03,5.637047e-03,6.219899e-03,6.640126e-03,6.909304e-03,7.037607e-03,7.033636e-03,6.903518e-03,6.651914e-03,6.281913e-03,5.795829e-03,5.196082e-03,4.485905e-03,3.670178e-03,2.756276e-03,1.754655e-03,6.794573e-04,-4.510117e-04,-1.614038e-03,-2.782475e-03,-3.925027e-03,-5.006790e-03,-5.990344e-03,-6.837369e-03,-7.510608e-03,-7.976125e-03,-8.206525e-03,-8.183241e-03,-7.899456e-03,-7.361651e-03,-6.592348e-03,-5.626903e-03,-4.517749e-03,-3.324856e-03,-2.124234e-03,-9.855079e-04,0.000000e+00,
2.771936e-17,1.239947e-03,2.355183e-03,3.322098e-03,4.137058e-03,4.798054e-03,5.311351e-03,5.684069e-03,5.924909e-03,6.041295e-03,6.040513e-03,5.927728e-03,5.706761e-03,5.380512e-03,4.951320e-03,4.421608e-03,3.794815e-03,3.075999e-03,2.272506e-03,1.394595e-03,4.559103e-04,-5.262630e-04,-1.530862e-03,-2.533108e-03,-3.504958e-03,-4.415775e-03,-5.233383e-03,-5.925555e-03,-6.461770e-03,-6.815197e-03,-6.965332e-03,-6.899405e-03,-6.615140e-03,-6.121779e-03,-5.441204e-03,-4.606114e-03,-3.663653e-03,-2.666152e-03,-1.679746e-03,-7.646283e-04,-2.772202e-17,
0.000000e+00,1.004871e-03,1.929974e-03,2.744498e-03,3.440333e-03,4.010880e-03,4.458030e-03,4.784845e-03,4.998367e-03,5.103929e-03,5.107014e-03,5.012243e-03,4.822914e-03,4.541501e-03,4.170326e-03,3.711780e-03,3.169227e-03,2.547598e-03,1.853919e-03,1.097855e-03,2.920811e-04,-5.475506e-04,-1.401980e-03,-2.249139e-03,-3.064389e-03,-3.821262e-03,-4.492546e-03,-5.051430e-03,-5.473182e-03,-5.736927e-03,-5.827306e-03,-5.735920e-03,-5.463893e-03,-5.021076e-03,-4.428036e-03,-3.715350e-03,-2.924059e-03,-2.099195e-03,-1.299034e-03,-5.763905e-04,0.000000e+00,
0.000000e+00,7.894116e-04,1.538889e-03,2.212400e-03,2.797120e-03,3.281549e-03,3.665580e-03,3.948714e-03,4.135455e-03,4.230434e-03,4.237636e-03,4.160764e-03,4.002977e-03,3.766330e-03,3.452923e-03,3.065096e-03,2.605932e-03,2.079952e-03,1.493617e-03,8.556727e-04,1.774706e-04,-5.268807e-04,-1.240598e-03,-1.944472e-03,-2.617315e-03,-3.236701e-03,-3.779901e-03,-4.224904e-03,-4.551995e-03,-4.744959e-03,-4.792369e-03,-4.689298e-03,-4.438476e-03,-4.049398e-03,-3.541919e-03,-2.942743e-03,-2.286789e-03,-1.614457e-03,-9.761573e-04,-4.173576e-04,-2.772073e-17,
0.000000e+00,5.952759e-04,1.185581e-03,1.729981e-03,2.212470e-03,2.616184e-03,2.939202e-03,3.180572e-03,3.341356e-03,3.425196e-03,3.436031e-03,3.376313e-03,3.248878e-03,3.055724e-03,2.798534e-03,2.479406e-03,2.101111e-03,1.667554e-03,1.184367e-03,6.591575e-04,1.017401e-04,-4.757587e-04,-1.058997e-03,-1.631670e-03,-2.176006e-03,-2.673380e-03,-3.105085e-03,-3.453424e-03,-3.702853e-03,-3.840691e-03,-3.858868e-03,-3.754702e-03,-3.531028e-03,-3.197633e-03,-2.772622e-03,-2.276939e-03,-1.742428e-03,-1.204719e-03,-7.056101e-04,-2.852358e-04,0.000000e+00,
0.000000e+00,4.258372e-04,8.759626e-04,1.302528e-03,1.689453e-03,2.019404e-03,2.284801e-03,2.484678e-03,2.620145e-03,2.692438e-03,2.705526e-03,2.661515e-03,2.562429e-03,2.410261e-03,2.206448e-03,1.952580e-03,1.651026e-03,1.305036e-03,9.192165e-04,4.998883e-04,5.519956e-05,-4.048225e-04,-8.683341e-04,-1.321942e-03,-1.751150e-03,-2.140826e-03,-2.475994e-03,-2.742719e-03,-2.928747e-03,-3.024443e-03,-3.024372e-03,-2.926704e-03,-2.734592e-03,-2.457577e-03,-2.109624e-03,-1.709088e-03,-1.284900e-03,-8.626207e-04,-4.805313e-04,-1.766249e-04,0.000000e+00,
0.000000e+00,2.816312e-04,6.093082e-04,9.343562e-04,1.233634e-03,1.494018e-03,1.706434e-03,1.865569e-03,1.975490e-03,2.036044e-03,2.049577e-03,2.019009e-03,1.945698e-03,1.830999e-03,1.676387e-03,1.483021e-03,1.252616e-03,9.877570e-04,6.920253e-04,3.703508e-04,2.916447e-05,-3.236035e-04,-6.785924e-04,-1.025247e-03,-1.352128e-03,-1.647376e-03,-1.899438e-03,-2.097458e-03,-2.232042e-03,-2.296370e-03,-2.286336e-03,-2.200522e-03,-2.043203e-03,-1.821312e-03,-1.545101e-03,-1.233232e-03,-9.061158e-04,-5.827571e-04,-3.026733e-04,-9.208531e-05,-2.771911e-17,
0.000000e+00,1.627323e-04,3.870830e-04,6.251058e-04,8.503361e-04,1.044325e-03,1.206080e-03,1.327650e-03,1.411534e-03,1.459559e-03,1.472279e-03,1.452333e-03,1.401365e-03,1.319980e-03,1.209282e-03,1.070280e-03,9.040479e-04,7.124003e-04,4.979682e-04,2.643319e-04,1.623271e-05,-2.404170e-04,-4.986428e-04,-7.505447e-04,-9.875453e-04,-1.200841e-03,-1.381825e-03,-1.522339e-03,-1.615721e-03,-1.657066e-03,-1.643026e-03,-1.573314e-03,-1.451783e-03,-1.282125e-03,-1.074409e-03,-8.423614e-04,-5.984343e-04,-3.652637e-04,-1.713153e-04,-3.285526e-05,0.000000e+00,
0.000000e+00,7.696832e-05,2.225159e-04,3.773569e-04,5.385126e-04,6.743159e-04,7.864647e-04,8.743054e-04,9.330078e-04,9.671226e-04,9.782165e-04,9.663886e-04,9.335502e-04,8.805930e-04,8.077092e-04,7.156576e-04,6.052113e-04,4.773921e-04,3.339264e-04,1.772203e-04,1.045407e-05,-1.623393e-04,-3.363624e-04,-5.061273e-04,-6.657205e-04,-8.090530e-04,-9.300244e-04,-1.023123e-03,-1.083921e-03,-1.108461e-03,-1.094997e-03,-1.044161e-03,-9.566809e-04,-8.360519e-04,-6.930821e-04,-5.297790e-04,-3.608181e-04,-2.064337e-04,-7.182872e-05,8.113827e-06,-2.771769e-17,
0.000000e+00,1.711137e-05,1.043845e-04,1.989270e-04,2.961942e-04,3.849145e-04,4.529188e-04,5.077621e-04,5.448605e-04,5.656632e-04,5.732741e-04,5.675006e-04,5.488456e-04,5.184906e-04,4.764487e-04,4.229129e-04,3.584065e-04,2.834596e-04,1.989752e-04,1.063684e-04,7.510234e-06,-9.520755e-05,-1.988645e-04,-3.001130e-04,-3.953623e-04,-4.808038e-04,-5.526771e-04,-6.077222e-04,-6.429957e-04,-6.559658e-04,-6.462829e-04,-6.135164e-04,-5.577452e-04,-4.831791e-04,-3.949460e-04,-2.916312e-04,-1.919195e-04,-9.428043e-05,-1.455475e-05,2.115220e-05,0.000000e+00,
0.000000e+00,-2.756162e-05,2.231099e-05,8.893077e-05,1.211586e-04,1.743887e-04,2.104770e-04,2.324829e-04,2.524592e-04,2.635723e-04,2.661645e-04,2.642738e-04,2.562218e-04,2.421678e-04,2.230812e-04,1.985835e-04,1.687485e-04,1.340148e-04,9.466131e-05,5.129313e-05,4.814575e-06,-4.366193e-05,-9.272196e-05,-1.407971e-04,-1.861064e-04,-2.266680e-04,-2.608956e-04,-2.870360e-04,-3.031650e-04,-3.090871e-04,-3.042308e-04,-2.861481e-04,-2.593523e-04,-2.245713e-04,-1.757769e-04,-1.270121e-04,-8.815854e-05,-2.123762e-05,-3.190811e-06,-1.788721e-06,0.000000e+00,
-2.772054e-17,-2.330567e-05,-7.646322e-08,2.770317e-05,2.224881e-05,4.563053e-05,5.779655e-05,5.932865e-05,6.623908e-05,7.010757e-05,6.971284e-05,6.959348e-05,6.778727e-05,6.394812e-05,5.912403e-05,5.285920e-05,4.505212e-05,3.599437e-05,2.566073e-05,1.417739e-05,1.811536e-06,-1.115445e-05,-2.432411e-05,-3.730920e-05,-4.959291e-05,-6.053008e-05,-6.988540e-05,-7.705148e-05,-8.112047e-05,-8.287558e-05,-8.178131e-05,-7.543398e-05,-6.881303e-05,-6.073670e-05,-4.225847e-05,-3.040593e-05,-2.864131e-05,7.464613e-06,4.423679e-06,-6.918808e-06,0.000000e+00,
0.000000e+00,0.000000e+00,2.772050e-17,0.000000e+00,0.000000e+00,0.000000e+00,-2.772292e-17,0.000000e+00,2.772307e-17,0.000000e+00,0.000000e+00,0.000000e+00,0.000000e+00,0.000000e+00,2.772239e-17,0.000000e+00,2.772149e-17,0.000000e+00,0.000000e+00,0.000000e+00,0.000000e+00,-2.771822e-17,0.000000e+00,0.000000e+00,0.000000e+00,0.000000e+00,2.771507e-17,0.000000e+00,-2.771446e-17,0.000000e+00,0.000000e+00,2.771453e-17,0.000000e+00,0.000000e+00,0.000000e+00,-2.771576e-17,0.000000e+00,-2.771776e-17,0.000000e+00,0.000000e+00,0.000000e+00,
