0.000000,0.000000e+00
0.012500,-8.842572e-03
0.025000,-1.720696e-02
0.037500,-2.516437e-02
0.050000,-3.276587e-02
0.062500,-4.006214e-02
0.075000,-4.709737e-02
0.087500,-5.391190e-02
0.100000,-6.054181e-02
0.112500,-6.701938e-02
0.125000,-7.337321e-02
0.137500,-7.962835e-02
0.150000,-8.580638e-02
0.162500,-9.192539e-02
0.175000,-9.799999e-02
0.187500,-1.040412e-01
0.200000,-1.100565e-01
0.212500,-1.160495e-01
0.225000,-1.220199e-01
0.237500,-1.279634e-01
0.250000,-1.338717e-01
0.262500,-1.397321e-01
0.275000,-1.455276e-01
0.287500,-1.512366e-01
0.300000,-1.568335e-01
0.312500,-1.622879e-01
0.325000,-1.675654e-01
0.337500,-1.726274e-01
0.350000,-1.774316e-01
0.362500,-1.819322e-01
0.375000,-1.860804e-01
0.387500,-1.898250e-01
0.400000,-1.931132e-01
0.412500,-1.958909e-01
0.425000,-1.981039e-01
0.437500,-1.996987e-01
0.450000,-2.006235e-01
0.462500,-2.008287e-01
0.475000,-2.002687e-01
0.487500,-1.989020e-01
0.500000,-1.966923e-01
0.512500,-1.936095e-01
0.525000,-1.896302e-01
0.537500,-1.847378e-01
0.550000,-1.789234e-01
0.562500,-1.721853e-01
0.575000,-1.645292e-01
0.587500,-1.559675e-01
0.600000,-1.465188e-01
0.612500,-1.362067e-01
0.625000,-1.250589e-01
0.637500,-1.131052e-01
0.650000,-1.003758e-01
0.662500,-8.689903e-02
0.675000,-7.269901e-02
0.687500,-5.779236e-02
0.700000,-4.218503e-02
0.712500,-2.586835e-02
0.725000,-8.814761e-03
0.737500,9.027095e-03
0.750000,2.773774e-02
0.762500,4.743269e-02
0.775000,6.826851e-02
0.787500,9.044891e-02
0.800000,1.142303e-01
0.812500,1.399261e-01
0.825000,1.679089e-01
0.837500,1.986093e-01
0.850000,2.325091e-01
0.862500,2.701283e-01
0.875000,3.120031e-01
0.887500,3.586532e-01
0.900000,4.105379e-01
0.912500,4.680000e-01
0.925000,5.311997e-01
0.937500,6.000444e-01
0.950000,6.741088e-01
0.962500,7.525975e-01
0.975000,8.342372e-01
0.987500,9.174884e-01
1.000000,1.000000e+00
