7.871651e-02	1.000000e-01	1.000000e-01	1.000000e-01	1.000000e-01	1.000000e-01	1.000000e-01	1.000000e-01	1.000000e-01	1.000000e-01	1.000000e-01	1.000000e-01	1.000000e-01	1.000000e-01	1.000000e-01	1.000000e-01	1.000000e-01	1.000000e-01	1.000000e-01	1.000000e-01	1.000000e-01	1.000000e-01	1.000000e-01	1.000000e-01	1.000000e-01	1.000000e-01	1.000000e-01	1.000000e-01	1.000000e-01	1.000000e-01	1.000000e-01	1.000000e-01	1.000000e-01	1.000000e-01	1.000000e-01	1.000000e-01	1.000000e-01	1.000000e-01	1.000000e-01	1.000000e-01	1.000000e-01	1.000000e-01	1.000000e-01	1.000000e-01	1.000000e-01	1.000000e-01	1.000000e-01	1.000000e-01	1.000000e-01	1.000000e-01	1.000000e-01	1.000000e-01	1.000000e-01	1.000000e-01	1.000000e-01	1.000000e-01	1.000000e-01	1.000000e-01	1.000000e-01	1.000000e-01	1.000000e-01	1.000000e-01	1.000000e-01	1.000000e-01	1.000000e-01	1.000000e-01	1.000000e-01	1.000000e-01	1.000000e-01	1.000000e-01	1.000000e-01	1.000000e-01	1.000000e-01	1.000000e-01	1.000000e-01	1.000000e-01	1.000000e-01	1.000000e-01	1.000000e-01	1.000000e-01	7.878766e-02	
0.000000e+00	1.557054e-02	1.717811e-02	4.000874e-02	4.381184e-02	3.897924e-02	4.698443e-02	5.011170e-02	4.962612e-02	5.273592e-02	5.456927e-02	5.529375e-02	5.698819e-02	5.835827e-02	5.940143e-02	6.069961e-02	6.191727e-02	6.303662e-02	6.421642e-02	6.536957e-02	6.648306e-02	6.759706e-02	6.868713e-02	6.974515e-02	7.077917e-02	7.178083e-02	7.274538e-02	7.367319e-02	7.456084e-02	7.540590e-02	7.620774e-02	7.696516e-02	7.767735e-02	7.834432e-02	7.896611e-02	7.954307e-02	8.007590e-02	8.056547e-02	8.101280e-02	8.141907e-02	8.178557e-02	8.211367e-02	8.240480e-02	8.266040e-02	8.288193e-02	8.307087e-02	8.322865e-02	8.335669e-02	8.345633e-02	8.352888e-02	8.357555e-02	8.359744e-02	8.359554e-02	8.357064e-02	8.352334e-02	8.345396e-02	8.336246e-02	8.324831e-02	8.311047e-02	8.294696e-02	8.275505e-02	8.253044e-02	8.226719e-02	8.195809e-02	8.159003e-02	8.115385e-02	8.062144e-02	7.998165e-02	7.918899e-02	7.820178e-02	7.701305e-02	7.540102e-02	7.362204e-02	7.092123e-02	6.801590e-02	6.388135e-02	5.741520e-02	5.227382e-02	3.419351e-02	2.242716e-02	-2.719607e-17	
0.000000e+00	1.689805e-02	5.487227e-03	-6.878698e-03	9.330624e-03	1.109366e-02	9.055796e-03	1.502267e-02	1.765059e-02	1.872450e-02	2.169731e-02	2.381581e-02	2.545616e-02	2.756061e-02	2.944966e-02	3.120060e-02	3.306719e-02	3.487927e-02	3.664642e-02	3.843319e-02	4.019388e-02	4.192406e-02	4.363651e-02	4.531595e-02	4.695646e-02	4.855778e-02	5.011296e-02	5.161746e-02	5.306888e-02	5.446359e-02	5.579891e-02	5.707317e-02	5.828478e-02	5.943271e-02	6.051651e-02	6.153604e-02	6.249152e-02	6.338353e-02	6.421290e-02	6.498068e-02	6.568813e-02	6.633667e-02	6.692782e-02	6.746321e-02	6.794452e-02	6.837350e-02	6.875189e-02	6.908146e-02	6.936393e-02	6.960103e-02	6.979439e-02	6.994560e-02	7.005611e-02	7.012725e-02	7.016015e-02	7.015571e-02	7.011447e-02	7.003658e-02	6.992164e-02	6.976838e-02	6.957492e-02	6.933740e-02	6.905156e-02	6.870924e-02	6.830106e-02	6.781477e-02	6.722539e-02	6.652598e-02	6.564851e-02	6.461015e-02	6.327869e-02	6.163982e-02	5.966601e-02	5.687101e-02	5.405376e-02	4.929132e-02	4.481541e-02	3.746103e-02	2.782136e-02	1.963950e-02	0.000000e+00	
0.000000e+00	-5.577102e-03	-9.240511e-03	-1.096975e-02	-8.573475e-03	-3.591765e-03	-3.148495e-03	-2.118441e-03	4.437453e-04	2.123255e-03	3.804268e-03	5.867495e-03	7.768231e-03	9.673124e-03	1.168432e-02	1.367336e-02	1.566794e-02	1.769000e-02	1.970335e-02	2.170651e-02	2.369955e-02	2.566835e-02	2.760676e-02	2.951023e-02	3.137124e-02	3.318450e-02	3.494580e-02	3.665073e-02	3.829584e-02	3.987844e-02	4.139619e-02	4.284735e-02	4.423074e-02	4.554554e-02	4.679135e-02	4.796814e-02	4.907617e-02	5.011595e-02	5.108825e-02	5.199400e-02	5.283431e-02	5.361040e-02	5.432360e-02	5.497531e-02	5.556700e-02	5.610018e-02	5.657637e-02	5.699710e-02	5.736390e-02	5.767829e-02	5.794171e-02	5.815558e-02	5.832118e-02	5.843971e-02	5.851217e-02	5.853934e-02	5.852166e-02	5.845919e-02	5.835140e-02	5.819705e-02	5.799388e-02	5.773851e-02	5.742538e-02	5.704787e-02	5.659435e-02	5.605265e-02	5.540183e-02	5.461650e-02	5.366856e-02	5.249226e-02	5.107558e-02	4.924965e-02	4.704040e-02	4.416063e-02	4.054434e-02	3.590628e-02	2.976118e-02	2.289497e-02	1.017898e-02	8.436863e-04	5.495638e-17	
-2.772139e-17	2.992436e-03	-2.119353e-03	-5.316919e-03	-7.252647e-03	-8.126467e-03	-6.599091e-03	-6.234793e-03	-5.821705e-03	-4.277201e-03	-2.832671e-03	-1.388457e-03	3.941422e-04	2.224296e-03	4.084797e-03	6.053111e-03	8.052277e-03	1.006119e-02	1.209029e-02	1.411350e-02	1.611628e-02	1.809472e-02	2.003732e-02	2.193538e-02	2.378403e-02	2.557745e-02	2.731095e-02	2.898141e-02	3.058607e-02	3.212283e-02	3.359041e-02	3.498793e-02	3.631499e-02	3.757160e-02	3.875808e-02	3.987504e-02	4.092328e-02	4.190381e-02	4.281776e-02	4.366635e-02	4.445089e-02	4.517274e-02	4.583327e-02	4.643388e-02	4.697597e-02	4.746092e-02	4.789010e-02	4.826487e-02	4.858652e-02	4.885632e-02	4.907551e-02	4.924521e-02	4.936651e-02	4.944035e-02	4.946754e-02	4.944866e-02	4.938405e-02	4.927366e-02	4.911696e-02	4.891273e-02	4.865894e-02	4.835235e-02	4.798801e-02	4.755968e-02	4.705646e-02	4.646792e-02	4.577231e-02	4.495036e-02	4.396851e-02	4.277440e-02	4.135048e-02	3.952937e-02	3.738315e-02	3.455038e-02	3.107529e-02	2.672889e-02	2.091058e-02	1.452454e-02	4.626256e-03	1.743207e-03	0.000000e+00	
0.000000e+00	-2.457138e-03	-4.610598e-03	-6.186354e-03	-6.680116e-03	-7.994090e-03	-8.131379e-03	-6.945621e-03	-6.435351e-03	-5.713607e-03	-4.300956e-03	-2.875753e-03	-1.362823e-03	3.899130e-04	2.212725e-03	4.084336e-03	6.029355e-03	7.996923e-03	9.965786e-03	1.193212e-02	1.387617e-02	1.578475e-02	1.765118e-02	1.946638e-02	2.122331e-02	2.291754e-02	2.454488e-02	2.610218e-02	2.758749e-02	2.899940e-02	3.033715e-02	3.160061e-02	3.279007e-02	3.390617e-02	3.494991e-02	3.592250e-02	3.682534e-02	3.765996e-02	3.842798e-02	3.913107e-02	3.977092e-02	4.034920e-02	4.086758e-02	4.132768e-02	4.173106e-02	4.207924e-02	4.237366e-02	4.261572e-02	4.280672e-02	4.294793e-02	4.304051e-02	4.308555e-02	4.308406e-02	4.303691e-02	4.294484e-02	4.280841e-02	4.262791e-02	4.240335e-02	4.213427e-02	4.181964e-02	4.145766e-02	4.104557e-02	4.057903e-02	4.005233e-02	3.945658e-02	3.878096e-02	3.800891e-02	3.711919e-02	3.608537e-02	3.486294e-02	3.341597e-02	3.164782e-02	2.954087e-02	2.686799e-02	2.362723e-02	1.968717e-02	1.457561e-02	8.481561e-03	2.008450e-03	2.911930e-04	2.743372e-17	
-2.763466e-17	-7.282026e-04	-3.033881e-03	-4.366878e-03	-5.039853e-03	-5.725069e-03	-6.338388e-03	-6.053337e-03	-5.273192e-03	-4.548119e-03	-3.523092e-03	-2.147374e-03	-6.578034e-04	9.583406e-04	2.713769e-03	4.536377e-03	6.402709e-03	8.301700e-03	1.020479e-02	1.209430e-02	1.395890e-02	1.578503e-02	1.756246e-02	1.928393e-02	2.094279e-02	2.253388e-02	2.405355e-02	2.549895e-02	2.686813e-02	2.815999e-02	2.937404e-02	3.051032e-02	3.156938e-02	3.255215e-02	3.345984e-02	3.429392e-02	3.505604e-02	3.574797e-02	3.637156e-02	3.692869e-02	3.742126e-02	3.785114e-02	3.822016e-02	3.853011e-02	3.878270e-02	3.897958e-02	3.912231e-02	3.921239e-02	3.925123e-02	3.924018e-02	3.918049e-02	3.907336e-02	3.891986e-02	3.872100e-02	3.847764e-02	3.819050e-02	3.786010e-02	3.748668e-02	3.707014e-02	3.660991e-02	3.610471e-02	3.555256e-02	3.495001e-02	3.429264e-02	3.357308e-02	3.278244e-02	3.190716e-02	3.092815e-02	2.982614e-02	2.855556e-02	2.709603e-02	2.535884e-02	2.330535e-02	2.080894e-02	1.778560e-02	1.416173e-02	9.538985e-03	4.265446e-03	-1.193301e-03	-2.083697e-03	0.000000e+00	
0.000000e+00	4.449136e-04	-1.141529e-03	-2.881282e-03	-3.722858e-03	-4.246820e-03	-4.430968e-03	-4.404416e-03	-3.913440e-03	-3.005438e-03	-1.984766e-03	-7.677744e-04	6.935352e-04	2.274062e-03	3.942976e-03	5.700246e-03	7.502745e-03	9.323220e-03	1.114864e-02	1.295946e-02	1.474008e-02	1.648037e-02	1.817042e-02	1.980207e-02	2.136946e-02	2.286771e-02	2.429302e-02	2.564274e-02	2.691503e-02	2.810876e-02	2.922347e-02	3.025925e-02	3.121660e-02	3.209644e-02	3.289994e-02	3.362853e-02	3.428378e-02	3.486739e-02	3.538113e-02	3.582679e-02	3.620615e-02	3.652100e-02	3.677305e-02	3.696399e-02	3.709542e-02	3.716891e-02	3.718592e-02	3.714789e-02	3.705616e-02	3.691204e-02	3.671678e-02	3.647156e-02	3.617754e-02	3.583579e-02	3.544732e-02	3.501306e-02	3.453380e-02	3.401016e-02	3.344251e-02	3.283090e-02	3.217486e-02	3.147334e-02	3.072422e-02	2.992450e-02	2.906901e-02	2.815099e-02	2.716022e-02	2.608227e-02	2.489968e-02	2.357948e-02	2.210103e-02	2.039082e-02	1.841914e-02	1.608372e-02	1.331307e-02	1.005006e-02	5.964166e-03	1.499262e-03	-1.817336e-03	-8.006239e-04	0.000000e+00	
0.000000e+00	-1.174848e-03	-1.719099e-03	-2.074368e-03	-2.701802e-03	-3.104007e-03	-3.057396e-03	-2.767078e-03	-2.327204e-03	-1.531983e-03	-4.462517e-04	7.657174e-04	2.136352e-03	3.667725e-03	5.286954e-03	6.966187e-03	8.692532e-03	1.043666e-02	1.217748e-02	1.390181e-02	1.559534e-02	1.724640e-02	1.884661e-02	2.038858e-02	2.186632e-02	2.327536e-02	2.461222e-02	2.587430e-02	2.705989e-02	2.816799e-02	2.919816e-02	3.015050e-02	3.102553e-02	3.182408e-02	3.254727e-02	3.319637e-02	3.377280e-02	3.427805e-02	3.471366e-02	3.508113e-02	3.538197e-02	3.561763e-02	3.578950e-02	3.589892e-02	3.594714e-02	3.593536e-02	3.586472e-02	3.573629e-02	3.555112e-02	3.531020e-02	3.501452e-02	3.466505e-02	3.426274e-02	3.380857e-02	3.330350e-02	3.274849e-02	3.214450e-02	3.149243e-02	3.079306e-02	3.004706e-02	2.925478e-02	2.841622e-02	2.753068e-02	2.659682e-02	2.561177e-02	2.457128e-02	2.346896e-02	2.229380e-02	2.103374e-02	1.966473e-02	1.816483e-02	1.648484e-02	1.458922e-02	1.239973e-02	9.864308e-03	6.903746e-03	3.269951e-03	-3.942135e-04	-2.303300e-03	-1.184693e-03	2.754733e-17	
2.765023e-17	1.218677e-04	-6.266473e-04	-1.205700e-03	-1.529378e-03	-1.797131e-03	-1.784095e-03	-1.423064e-03	-8.479506e-04	-8.142706e-05	9.413325e-04	2.167624e-03	3.516621e-03	4.979554e-03	6.539885e-03	8.155685e-03	9.801657e-03	1.146162e-02	1.311601e-02	1.474908e-02	1.634956e-02	1.790725e-02	1.941366e-02	2.086227e-02	2.224775e-02	2.356583e-02	2.481337e-02	2.598807e-02	2.708843e-02	2.811362e-02	2.906341e-02	2.993801e-02	3.073802e-02	3.146435e-02	3.211807e-02	3.270042e-02	3.321270e-02	3.365623e-02	3.403230e-02	3.434217e-02	3.458700e-02	3.476788e-02	3.488580e-02	3.494165e-02	3.493623e-02	3.487025e-02	3.474434e-02	3.455907e-02	3.431496e-02	3.401250e-02	3.365218e-02	3.323450e-02	3.275998e-02	3.222923e-02	3.164288e-02	3.100171e-02	3.030654e-02	2.955832e-02	2.875807e-02	2.790684e-02	2.700567e-02	2.605553e-02	2.505702e-02	2.401047e-02	2.291527e-02	2.176990e-02	2.057115e-02	1.931250e-02	1.798653e-02	1.657503e-02	1.506193e-02	1.340895e-02	1.157935e-02	9.523366e-03	7.175360e-03	4.421528e-03	1.212065e-03	-1.679397e-03	-2.898536e-03	-1.459630e-03	0.000000e+00	
0.000000e+00	-6.496905e-05	-3.503634e-04	-7.402439e-04	-9.049204e-04	-9.013472e-04	-7.307890e-04	-3.264797e-04	3.309821e-04	1.189937e-03	2.212713e-03	3.408732e-03	4.747406e-03	6.175580e-03	7.671514e-03	9.218133e-03	1.078811e-02	1.236120e-02	1.392395e-02	1.546294e-02	1.696678e-02	1.842690e-02	1.983598e-02	2.118785e-02	2.247775e-02	2.370194e-02	2.485757e-02	2.594271e-02	2.695617e-02	2.789743e-02	2.876649e-02	2.956382e-02	3.029020e-02	3.094666e-02	3.153438e-02	3.205461e-02	3.250863e-02	3.289765e-02	3.322282e-02	3.348518e-02	3.368565e-02	3.382499e-02	3.390385e-02	3.392271e-02	3.388193e-02	3.378175e-02	3.362229e-02	3.340358e-02	3.312558e-02	3.278820e-02	3.239133e-02	3.193487e-02	3.141878e-02	3.084306e-02	3.020788e-02	2.951351e-02	2.876046e-02	2.794942e-02	2.708136e-02	2.615747e-02	2.517919e-02	2.414819e-02	2.306617e-02	2.193490e-02	2.075585e-02	1.952990e-02	1.825702e-02	1.693487e-02	1.555943e-02	1.411944e-02	1.260222e-02	1.097673e-02	9.214433e-03	7.271013e-03	5.069027e-03	2.528813e-03	-2.719558e-04	-2.527819e-03	-2.853538e-03	-9.924792e-04	0.000000e+00	
-2.764278e-17	-2.352483e-04	-3.313588e-04	-3.221481e-04	-3.480768e-04	-2.109375e-04	1.366442e-04	6.530243e-04	1.358937e-03	2.269457e-03	3.339038e-03	4.531204e-03	5.837251e-03	7.230191e-03	8.673882e-03	1.014803e-02	1.163727e-02	1.312363e-02	1.459292e-02	1.603487e-02	1.744016e-02	1.880074e-02	2.011021e-02	2.136326e-02	2.255556e-02	2.368381e-02	2.474565e-02	2.573952e-02	2.666461e-02	2.752077e-02	2.830833e-02	2.902804e-02	2.968094e-02	3.026823e-02	3.079123e-02	3.125126e-02	3.164958e-02	3.198737e-02	3.226569e-02	3.248542e-02	3.264728e-02	3.275181e-02	3.279936e-02	3.279011e-02	3.272407e-02	3.260108e-02	3.242086e-02	3.218296e-02	3.188687e-02	3.153197e-02	3.111758e-02	3.064304e-02	3.010769e-02	2.951093e-02	2.885232e-02	2.813157e-02	2.734865e-02	2.650384e-02	2.559778e-02	2.463157e-02	2.360674e-02	2.252534e-02	2.138982e-02	2.020312e-02	1.896831e-02	1.768843e-02	1.636622e-02	1.500257e-02	1.359713e-02	1.214370e-02	1.063163e-02	9.038538e-03	7.338642e-03	5.484198e-03	3.404383e-03	1.054336e-03	-1.393685e-03	-3.076020e-03	-2.875282e-03	-1.073893e-03	-2.759714e-17	
0.000000e+00	1.132039e-04	2.189962e-05	-3.639655e-06	1.419052e-04	4.002381e-04	8.382722e-04	1.468127e-03	2.259420e-03	3.208473e-03	4.304589e-03	5.511313e-03	6.797338e-03	8.145181e-03	9.533577e-03	1.093919e-02	1.234634e-02	1.374351e-02	1.511924e-02	1.646383e-02	1.776974e-02	1.903028e-02	2.023967e-02	2.139322e-02	2.248723e-02	2.351888e-02	2.448627e-02	2.538834e-02	2.622473e-02	2.699569e-02	2.770194e-02	2.834455e-02	2.892479e-02	2.944409e-02	2.990387e-02	3.030552e-02	3.065032e-02	3.093938e-02	3.117368e-02	3.135396e-02	3.148077e-02	3.155447e-02	3.157518e-02	3.154284e-02	3.145719e-02	3.131780e-02	3.112405e-02	3.087518e-02	3.057028e-02	3.020834e-02	2.978827e-02	2.930889e-02	2.876906e-02	2.816764e-02	2.750362e-02	2.677614e-02	2.598462e-02	2.512883e-02	2.420897e-02	2.322580e-02	2.218074e-02	2.107590e-02	1.991419e-02	1.869925e-02	1.743539e-02	1.612734e-02	1.477987e-02	1.339673e-02	1.198041e-02	1.052792e-02	9.031906e-03	7.474818e-03	5.829553e-03	4.050648e-03	2.074650e-03	-1.115304e-04	-2.221564e-03	-3.400718e-03	-2.864052e-03	-1.013787e-03	2.760880e-17	
2.764646e-17	-3.279211e-05	4.793602e-05	1.929775e-04	4.516069e-04	8.597027e-04	1.417925e-03	2.139501e-03	3.016984e-03	4.024641e-03	5.141985e-03	6.349466e-03	7.619101e-03	8.925642e-03	1.025308e-02	1.158707e-02	1.291337e-02	1.422142e-02	1.550327e-02	1.675134e-02	1.795880e-02	1.911997e-02	2.022996e-02	2.128464e-02	2.228086e-02	2.321642e-02	2.408996e-02	2.490096e-02	2.564956e-02	2.633649e-02	2.696285e-02	2.753005e-02	2.803961e-02	2.849310e-02	2.889207e-02	2.923793e-02	2.953191e-02	2.977508e-02	2.996828e-02	3.011211e-02	3.020696e-02	3.025299e-02	3.025015e-02	3.019817e-02	3.009658e-02	2.994473e-02	2.974180e-02	2.948677e-02	2.917849e-02	2.881569e-02	2.839695e-02	2.792080e-02	2.738570e-02	2.679012e-02	2.613261e-02	2.541185e-02	2.462675e-02	2.377659e-02	2.286111e-02	2.188067e-02	2.083637e-02	1.973025e-02	1.856528e-02	1.734552e-02	1.607604e-02	1.476269e-02	1.341183e-02	1.202924e-02	1.061926e-02	9.181711e-03	7.711472e-03	6.192809e-03	4.599124e-03	2.886037e-03	1.000267e-03	-1.017407e-03	-2.805035e-03	-3.571794e-03	-2.705917e-03	-8.421661e-04	0.000000e+00	
-2.764699e-17	2.552462e-05	1.394760e-04	3.857963e-04	7.444473e-04	1.250726e-03	1.916199e-03	2.724523e-03	3.665871e-03	4.721568e-03	5.861985e-03	7.062844e-03	8.304810e-03	9.567630e-03	1.083440e-02	1.209430e-02	1.333863e-02	1.455906e-02	1.574864e-02	1.690162e-02	1.801245e-02	1.907609e-02	2.008830e-02	2.104567e-02	2.194568e-02	2.278674e-02	2.356815e-02	2.428998e-02	2.495295e-02	2.555823e-02	2.610735e-02	2.660201e-02	2.704395e-02	2.743487e-02	2.777636e-02	2.806980e-02	2.831638e-02	2.851702e-02	2.867241e-02	2.878300e-02	2.884899e-02	2.887036e-02	2.884687e-02	2.877809e-02	2.866337e-02	2.850190e-02	2.829268e-02	2.803457e-02	2.772624e-02	2.736626e-02	2.695303e-02	2.648489e-02	2.596007e-02	2.537679e-02	2.473331e-02	2.402796e-02	2.325931e-02	2.242623e-02	2.152804e-02	2.056472e-02	1.953702e-02	1.844671e-02	1.729667e-02	1.609106e-02	1.483530e-02	1.353592e-02	1.220024e-02	1.083529e-02	9.446717e-03	8.036184e-03	6.599388e-03	5.121921e-03	3.577200e-03	1.921722e-03	1.215629e-04	-1.729893e-03	-3.223691e-03	-3.639680e-03	-2.594735e-03	-8.239839e-04	-2.762365e-17	
0.000000e+00	8.129372e-05	2.418845e-04	5.289923e-04	9.821917e-04	1.583174e-03	2.333026e-03	3.220724e-03	4.220725e-03	5.309736e-03	6.462676e-03	7.653388e-03	8.861821e-03	1.007385e-02	1.127768e-02	1.246408e-02	1.362682e-02	1.476071e-02	1.586043e-02	1.692091e-02	1.793754e-02	1.890611e-02	1.982299e-02	2.068545e-02	2.149169e-02	2.224085e-02	2.293291e-02	2.356860e-02	2.414919e-02	2.467636e-02	2.515198e-02	2.557802e-02	2.595638e-02	2.628883e-02	2.657693e-02	2.682201e-02	2.702510e-02	2.718698e-02	2.730817e-02	2.738890e-02	2.742920e-02	2.742886e-02	2.738746e-02	2.730440e-02	2.717891e-02	2.701004e-02	2.679669e-02	2.653760e-02	2.623138e-02	2.587649e-02	2.547127e-02	2.501395e-02	2.450267e-02	2.393553e-02	2.331061e-02	2.262608e-02	2.188026e-02	2.107176e-02	2.019959e-02	1.926339e-02	1.826361e-02	1.720168e-02	1.608026e-02	1.490340e-02	1.367657e-02	1.240655e-02	1.110107e-02	9.767785e-03	8.413061e-03	7.039227e-03	5.642367e-03	4.208500e-03	2.710224e-03	1.108927e-03	-6.050305e-04	-2.291483e-03	-3.511123e-03	-3.635647e-03	-2.464074e-03	-7.448918e-04	2.762981e-17	
0.000000e+00	4.817067e-05	2.703337e-04	6.479292e-04	1.175615e-03	1.862066e-03	2.691351e-03	3.642249e-03	4.688932e-03	5.801587e-03	6.953842e-03	8.123753e-03	9.293401e-03	1.045064e-02	1.158819e-02	1.270070e-02	1.378363e-02	1.483318e-02	1.584551e-02	1.681647e-02	1.774197e-02	1.861845e-02	1.944303e-02	2.021371e-02	2.092947e-02	2.159022e-02	2.219670e-02	2.275028e-02	2.325280e-02	2.370636e-02	2.411315e-02	2.447534e-02	2.479492e-02	2.507365e-02	2.531302e-02	2.551420e-02	2.567808e-02	2.580522e-02	2.589592e-02	2.595023e-02	2.596796e-02	2.594872e-02	2.589194e-02	2.579688e-02	2.566263e-02	2.548817e-02	2.527232e-02	2.501377e-02	2.471109e-02	2.436272e-02	2.396699e-02	2.352211e-02	2.302621e-02	2.247736e-02	2.187361e-02	2.121305e-02	2.049391e-02	1.971463e-02	1.887406e-02	1.797160e-02	1.700741e-02	1.598264e-02	1.489967e-02	1.376229e-02	1.257579e-02	1.134686e-02	1.008321e-02	8.792623e-03	7.481428e-03	6.151985e-03	4.800196e-03	3.411508e-03	1.958743e-03	4.113206e-04	-1.213688e-03	-2.733053e-03	-3.701303e-03	-3.588324e-03	-2.316724e-03	-6.691701e-04	0.000000e+00	
0.000000e+00	8.953841e-05	3.365069e-04	7.607318e-04	1.356509e-03	2.109575e-03	3.001211e-03	4.001339e-03	5.078021e-03	6.200470e-03	7.341201e-03	8.479935e-03	9.603208e-03	1.070235e-02	1.177252e-02	1.281115e-02	1.381590e-02	1.478392e-02	1.571195e-02	1.659655e-02	1.743426e-02	1.822211e-02	1.895795e-02	1.964062e-02	2.026994e-02	2.084663e-02	2.137216e-02	2.184854e-02	2.227813e-02	2.266338e-02	2.300674e-02	2.331047e-02	2.357658e-02	2.380676e-02	2.400234e-02	2.416432e-02	2.429335e-02	2.438978e-02	2.445368e-02	2.448489e-02	2.448302e-02	2.444751e-02	2.437764e-02	2.427255e-02	2.413126e-02	2.395266e-02	2.373555e-02	2.347861e-02	2.318040e-02	2.283941e-02	2.245397e-02	2.202238e-02	2.154279e-02	2.101333e-02	2.043209e-02	1.979719e-02	1.910684e-02	1.835946e-02	1.755381e-02	1.668916e-02	1.576546e-02	1.478364e-02	1.374578e-02	1.265534e-02	1.151729e-02	1.033798e-02	9.124768e-03	7.885049e-03	6.624636e-03	5.345356e-03	4.042205e-03	2.699796e-03	1.292448e-03	-1.997601e-04	-1.731760e-03	-3.086402e-03	-3.827238e-03	-3.517047e-03	-2.196950e-03	-6.331399e-04	0.000000e+00	
0.000000e+00	9.587594e-05	3.823569e-04	8.549382e-04	1.509317e-03	2.322025e-03	3.263208e-03	4.298649e-03	5.391653e-03	6.509764e-03	7.627434e-03	8.726781e-03	9.797585e-03	1.083513e-02	1.183740e-02	1.280340e-02	1.373199e-02	1.462121e-02	1.546822e-02	1.626990e-02	1.702338e-02	1.772639e-02	1.837757e-02	1.897661e-02	1.952421e-02	2.002189e-02	2.047183e-02	2.087663e-02	2.123906e-02	2.156187e-02	2.184763e-02	2.209866e-02	2.231687e-02	2.250382e-02	2.266063e-02	2.278808e-02	2.288656e-02	2.295618e-02	2.299679e-02	2.300800e-02	2.298925e-02	2.293982e-02	2.285886e-02	2.274544e-02	2.259849e-02	2.241691e-02	2.219946e-02	2.194485e-02	2.165170e-02	2.131852e-02	2.094377e-02	2.052578e-02	2.006284e-02	1.955317e-02	1.899496e-02	1.838641e-02	1.772582e-02	1.701164e-02	1.624264e-02	1.541804e-02	1.453769e-02	1.360232e-02	1.261375e-02	1.157511e-02	1.049093e-02	9.367069e-03	8.210276e-03	7.027178e-03	5.822671e-03	4.597481e-03	3.345255e-03	2.049883e-03	6.884767e-04	-7.458557e-04	-2.180632e-03	-3.373232e-03	-3.907125e-03	-3.434847e-03	-2.080265e-03	-5.817960e-04	0.000000e+00	
2.764886e-17	1.011607e-04	4.198276e-04	9.422032e-04	1.645587e-03	2.504954e-03	3.483114e-03	4.538723e-03	5.633165e-03	6.733814e-03	7.817171e-03	8.869108e-03	9.882877e-03	1.085665e-02	1.179079e-02	1.268565e-02	1.354060e-02	1.435391e-02	1.512311e-02	1.584542e-02	1.651850e-02	1.714080e-02	1.771182e-02	1.823215e-02	1.870331e-02	1.912762e-02	1.950789e-02	1.984719e-02	2.014864e-02	2.041516e-02	2.064939e-02	2.085357e-02	2.102948e-02	2.117845e-02	2.130137e-02	2.139876e-02	2.147074e-02	2.151719e-02	2.153771e-02	2.153172e-02	2.149850e-02	2.143720e-02	2.134687e-02	2.122652e-02	2.107506e-02	2.089137e-02	2.067424e-02	2.042244e-02	2.013464e-02	1.980947e-02	1.944545e-02	1.904107e-02	1.859474e-02	1.810480e-02	1.756959e-02	1.698745e-02	1.635680e-02	1.567620e-02	1.494448e-02	1.416089e-02	1.332523e-02	1.243812e-02	1.150116e-02	1.051714e-02	9.490135e-03	8.425384e-03	7.328821e-03	6.206056e-03	5.060697e-03	3.891936e-03	2.691829e-03	1.443855e-03	1.293515e-04	-1.243952e-03	-2.577809e-03	-3.611941e-03	-3.959023e-03	-3.352571e-03	-1.976341e-03	-5.438287e-04	0.000000e+00	
-2.764934e-17	1.195487e-04	4.638486e-04	1.020810e-03	1.765879e-03	2.660236e-03	3.660714e-03	4.722205e-03	5.804024e-03	6.874948e-03	7.914563e-03	8.912481e-03	9.865577e-03	1.077456e-02	1.164121e-02	1.246663e-02	1.325041e-02	1.399083e-02	1.468550e-02	1.533207e-02	1.592877e-02	1.647483e-02	1.697060e-02	1.741755e-02	1.781800e-02	1.817497e-02	1.849181e-02	1.877196e-02	1.901877e-02	1.923524e-02	1.942396e-02	1.958702e-02	1.972601e-02	1.984200e-02	1.993561e-02	2.000707e-02	2.005625e-02	2.008278e-02	2.008605e-02	2.006532e-02	2.001971e-02	1.994828e-02	1.985003e-02	1.972391e-02	1.956883e-02	1.938370e-02	1.916737e-02	1.891866e-02	1.863635e-02	1.831917e-02	1.796578e-02	1.757479e-02	1.714476e-02	1.667422e-02	1.616164e-02	1.560555e-02	1.500451e-02	1.435725e-02	1.366269e-02	1.292018e-02	1.212952e-02	1.129127e-02	1.040686e-02	9.478762e-03	8.510580e-03	7.506870e-03	6.472622e-03	5.412204e-03	4.327644e-03	3.216294e-03	2.068525e-03	8.679074e-04	-3.986323e-04	-1.707668e-03	-2.937657e-03	-3.818563e-03	-3.996684e-03	-3.276812e-03	-1.891572e-03	-5.172557e-04	-2.765074e-17	
2.764958e-17	1.248370e-04	4.969879e-04	1.088901e-03	1.866433e-03	2.785425e-03	3.795751e-03	4.849326e-03	5.905750e-03	6.936177e-03	7.924088e-03	8.863037e-03	9.753035e-03	1.059684e-02	1.139711e-02	1.215507e-02	1.287016e-02	1.354061e-02	1.416410e-02	1.473869e-02	1.526324e-02	1.573778e-02	1.616353e-02	1.654275e-02	1.687851e-02	1.717438e-02	1.743415e-02	1.766155e-02	1.785999e-02	1.803248e-02	1.818147e-02	1.830885e-02	1.841594e-02	1.850354e-02	1.857198e-02	1.862120e-02	1.865084e-02	1.866030e-02	1.864878e-02	1.861540e-02	1.855917e-02	1.847908e-02	1.837408e-02	1.824313e-02	1.808515e-02	1.789911e-02	1.768391e-02	1.743848e-02	1.716168e-02	1.685239e-02	1.650939e-02	1.613146e-02	1.571732e-02	1.526566e-02	1.477515e-02	1.424449e-02	1.367242e-02	1.305784e-02	1.239985e-02	1.169787e-02	1.095179e-02	1.016215e-02	9.330226e-03	8.458239e-03	7.549302e-03	6.607250e-03	5.636030e-03	4.638596e-03	3.615169e-03	2.561058e-03	1.465003e-03	3.113309e-04	-9.061510e-04	-2.147812e-03	-3.271833e-03	-4.004719e-03	-4.028874e-03	-3.211926e-03	-1.818586e-03	-4.908306e-04	0.000000e+00	
2.764989e-17	1.348693e-04	5.288702e-04	1.148554e-03	1.949865e-03	2.881322e-03	3.888417e-03	4.921059e-03	5.940299e-03	6.920935e-03	7.850724e-03	8.727082e-03	9.552677e-03	1.033159e-02	1.106683e-02	1.175937e-02	1.240830e-02	1.301168e-02	1.356737e-02	1.407385e-02	1.453068e-02	1.493867e-02	1.529983e-02	1.561715e-02	1.589432e-02	1.613537e-02	1.634439e-02	1.652523e-02	1.668133e-02	1.681558e-02	1.693022e-02	1.702690e-02	1.710663e-02	1.716994e-02	1.721685e-02	1.724706e-02	1.725996e-02	1.725476e-02	1.723052e-02	1.718623e-02	1.712085e-02	1.703330e-02	1.692254e-02	1.678753e-02	1.662725e-02	1.644070e-02	1.622690e-02	1.598486e-02	1.571357e-02	1.541202e-02	1.507916e-02	1.471392e-02	1.431518e-02	1.388182e-02	1.341270e-02	1.290670e-02	1.236277e-02	1.178000e-02	1.115763e-02	1.049526e-02	9.792869e-03	9.050988e-03	8.270821e-03	7.454327e-03	6.604154e-03	5.723381e-03	4.814833e-03	3.879912e-03	2.916861e-03	1.918836e-03	8.731478e-04	-2.343235e-04	-1.401734e-03	-2.573248e-03	-3.589923e-03	-4.180100e-03	-4.063261e-03	-3.160881e-03	-1.760890e-03	-4.730556e-04	2.765583e-17	
0.000000e+00	1.439129e-04	5.571561e-04	1.197314e-03	2.013485e-03	2.946392e-03	3.937753e-03	4.937589e-03	5.909571e-03	6.832843e-03	7.699719e-03	8.511148e-03	9.271871e-03	9.986685e-03	1.065843e-02	1.128759e-02	1.187284e-02	1.241208e-02	1.290340e-02	1.334579e-02	1.373947e-02	1.408601e-02	1.438811e-02	1.464940e-02	1.487404e-02	1.506640e-02	1.523073e-02	1.537091e-02	1.549029e-02	1.559156e-02	1.567673e-02	1.574714e-02	1.580352e-02	1.584608e-02	1.587459e-02	1.588850e-02	1.588701e-02	1.586916e-02	1.583391e-02	1.578017e-02	1.570683e-02	1.561282e-02	1.549711e-02	1.535869e-02	1.519659e-02	1.500991e-02	1.479774e-02	1.455920e-02	1.429340e-02	1.399947e-02	1.367650e-02	1.332358e-02	1.293976e-02	1.252410e-02	1.207565e-02	1.159350e-02	1.107678e-02	1.052478e-02	9.936952e-03	9.313027e-03	8.653104e-03	7.957768e-03	7.228151e-03	6.465980e-03	5.673439e-03	4.852823e-03	4.005763e-03	3.131994e-03	2.227655e-03	1.283737e-03	2.864673e-04	-7.758379e-04	-1.892302e-03	-2.991212e-03	-3.899674e-03	-4.352247e-03	-4.104776e-03	-3.124883e-03	-1.717372e-03	-4.600696e-04	0.000000e+00	
-2.765045e-17	1.496710e-04	5.791184e-04	1.234777e-03	2.056344e-03	2.979599e-03	3.943788e-03	4.900087e-03	5.816179e-03	6.676127e-03	7.476691e-03	8.221883e-03	8.917880e-03	9.569652e-03	1.017953e-02	1.074734e-02	1.127135e-02	1.174941e-02	1.217988e-02	1.256228e-02	1.289748e-02	1.318771e-02	1.343628e-02	1.364731e-02	1.382529e-02	1.397480e-02	1.410012e-02	1.420509e-02	1.429285e-02	1.436587e-02	1.442585e-02	1.447386e-02	1.451030e-02	1.453512e-02	1.454783e-02	1.454770e-02	1.453375e-02	1.450491e-02	1.446004e-02	1.439802e-02	1.431772e-02	1.421809e-02	1.409811e-02	1.395684e-02	1.379338e-02	1.360689e-02	1.339658e-02	1.316166e-02	1.290137e-02	1.261496e-02	1.230167e-02	1.196074e-02	1.159139e-02	1.119286e-02	1.076438e-02	1.030524e-02	9.814786e-03	9.292490e-03	8.737998e-03	8.151223e-03	7.532391e-03	6.882150e-03	6.201581e-03	5.492191e-03	4.755691e-03	3.993561e-03	3.206163e-03	2.391463e-03	1.543416e-03	6.509330e-04	-3.003542e-04	-1.318752e-03	-2.383486e-03	-3.407578e-03	-4.207255e-03	-4.526566e-03	-4.156496e-03	-3.104282e-03	-1.685454e-03	-4.501327e-04	2.765963e-17	
0.000000e+00	1.561820e-04	5.970354e-04	1.260315e-03	2.077990e-03	2.980617e-03	3.906708e-03	4.810083e-03	5.663174e-03	6.455279e-03	7.187329e-03	7.865785e-03	8.497640e-03	9.087581e-03	9.637209e-03	1.014568e-02	1.061091e-02	1.103077e-02	1.140398e-02	1.173056e-02	1.201198e-02	1.225100e-02	1.245144e-02	1.261775e-02	1.275463e-02	1.286672e-02	1.295826e-02	1.303291e-02	1.309360e-02	1.314249e-02	1.318100e-02	1.320987e-02	1.322924e-02	1.323880e-02	1.323787e-02	1.322552e-02	1.320067e-02	1.316217e-02	1.310882e-02	1.303949e-02	1.295306e-02	1.284850e-02	1.272486e-02	1.258124e-02	1.241683e-02	1.223087e-02	1.202265e-02	1.179151e-02	1.153678e-02	1.125785e-02	1.095408e-02	1.062487e-02	1.026960e-02	9.887677e-03	9.478512e-03	9.041588e-03	8.576447e-03	8.082773e-03	7.560405e-03	7.009434e-03	6.430227e-03	5.823505e-03	5.190304e-03	4.531910e-03	3.849543e-03	3.143815e-03	2.413745e-03	1.655433e-03	8.606204e-04	1.633102e-05	-8.917920e-04	-1.867678e-03	-2.879932e-03	-3.827138e-03	-4.517501e-03	-4.707124e-03	-4.220480e-03	-3.098700e-03	-1.665066e-03	-4.447648e-04	0.000000e+00	
-2.765090e-17	1.603516e-04	6.087558e-04	1.272695e-03	2.077063e-03	2.948861e-03	3.827088e-03	4.669497e-03	5.453989e-03	6.175055e-03	6.837346e-03	7.449141e-03	8.017691e-03	8.547069e-03	9.038046e-03	9.489159e-03	9.898074e-03	1.026278e-02	1.058234e-02	1.085728e-02	1.108953e-02	1.128234e-02	1.143981e-02	1.156663e-02	1.166757e-02	1.174721e-02	1.180966e-02	1.185833e-02	1.189589e-02	1.192419e-02	1.194434e-02	1.195680e-02	1.196146e-02	1.195779e-02	1.194492e-02	1.192183e-02	1.188734e-02	1.184024e-02	1.177934e-02	1.170350e-02	1.161164e-02	1.150278e-02	1.137601e-02	1.123052e-02	1.106557e-02	1.088047e-02	1.067461e-02	1.044742e-02	1.019836e-02	9.926905e-03	9.632564e-03	9.314864e-03	8.973333e-03	8.607543e-03	8.217084e-03	7.801625e-03	7.360904e-03	6.894804e-03	6.403363e-03	5.886853e-03	5.345786e-03	4.780956e-03	4.193351e-03	3.584019e-03	2.953650e-03	2.301926e-03	1.626429e-03	9.213172e-04	1.761386e-04	-6.236676e-04	-1.491713e-03	-2.426519e-03	-3.385478e-03	-4.253706e-03	-4.834035e-03	-4.896576e-03	-4.297415e-03	-3.107061e-03	-1.654255e-03	-4.419897e-04	0.000000e+00	
0.000000e+00	1.629951e-04	6.141836e-04	1.271541e-03	2.053328e-03	2.884531e-03	3.706176e-03	4.480891e-03	5.192456e-03	5.840357e-03	6.432360e-03	6.977928e-03	7.484119e-03	7.954186e-03	8.388069e-03	8.783784e-03	9.138861e-03	9.451461e-03	9.721002e-03	9.948407e-03	1.013602e-02	1.028736e-02	1.040674e-02	1.049891e-02	1.056860e-02	1.062026e-02	1.065775e-02	1.068421e-02	1.070201e-02	1.071269e-02	1.071707e-02	1.071534e-02	1.070719e-02	1.069189e-02	1.066848e-02	1.063581e-02	1.059268e-02	1.053787e-02	1.047018e-02	1.038851e-02	1.029184e-02	1.017923e-02	1.004984e-02	9.902928e-03	9.737822e-03	9.553937e-03	9.350723e-03	9.127709e-03	8.884438e-03	8.620515e-03	8.335547e-03	8.029194e-03	7.701121e-03	7.351056e-03	6.978755e-03	6.584069e-03	6.166924e-03	5.727405e-03	5.265743e-03	4.782392e-03	4.278001e-03	3.753434e-03	3.209615e-03	2.647318e-03	2.066646e-03	1.466267e-03	8.422288e-04	1.866792e-04	-5.129327e-04	-1.272335e-03	-2.103543e-03	-2.998613e-03	-3.903262e-03	-4.690228e-03	-5.159412e-03	-5.096395e-03	-4.387137e-03	-3.127912e-03	-1.651357e-03	-4.414418e-04	0.000000e+00	
-2.765117e-17	1.642717e-04	6.132450e-04	1.256256e-03	2.006513e-03	2.788142e-03	3.545548e-03	4.247118e-03	4.882600e-03	5.456063e-03	5.977752e-03	6.457733e-03	6.902528e-03	7.314483e-03	7.692778e-03	8.035037e-03	8.338751e-03	8.602287e-03	8.825376e-03	9.009258e-03	9.156535e-03	9.270895e-03	9.356708e-03	9.418654e-03	9.461319e-03	9.488917e-03	9.505030e-03	9.512504e-03	9.513365e-03	9.508881e-03	9.499594e-03	9.485479e-03	9.466020e-03	9.440389e-03	9.407511e-03	9.366213e-03	9.315258e-03	9.253449e-03	9.179626e-03	9.092733e-03	8.991791e-03	8.875944e-03	8.744408e-03	8.596519e-03	8.431667e-03	8.249342e-03	8.049073e-03	7.830469e-03	7.593160e-03	7.336845e-03	7.061235e-03	6.766109e-03	6.451260e-03	6.116561e-03	5.761926e-03	5.387380e-03	4.993035e-03	4.579168e-03	4.146202e-03	3.694764e-03	3.225638e-03	2.739734e-03	2.237882e-03	1.720532e-03	1.187121e-03	6.351963e-04	5.916449e-05	-5.508703e-04	-1.209388e-03	-1.932739e-03	-2.730373e-03	-3.586825e-03	-4.435800e-03	-5.138849e-03	-5.495204e-03	-5.307093e-03	-4.488760e-03	-3.159420e-03	-1.655056e-03	-4.428719e-04	0.000000e+00	
2.765122e-17	1.633979e-04	6.051810e-04	1.226504e-03	1.936636e-03	2.660569e-03	3.347249e-03	3.971373e-03	4.528586e-03	5.026984e-03	5.478641e-03	5.893742e-03	6.278052e-03	6.633013e-03	6.957169e-03	7.247883e-03	7.502687e-03	7.720151e-03	7.900254e-03	8.044450e-03	8.155465e-03	8.237011e-03	8.293379e-03	8.329078e-03	8.348450e-03	8.355413e-03	8.353227e-03	8.344413e-03	8.330689e-03	8.313044e-03	8.291787e-03	8.266706e-03	8.237150e-03	8.202199e-03	8.160730e-03	8.111557e-03	8.053457e-03	7.985268e-03	7.905878e-03	7.814293e-03	7.709594e-03	7.590992e-03	7.457771e-03	7.309330e-03	7.145127e-03	6.964718e-03	6.767699e-03	6.553750e-03	6.322580e-03	6.073971e-03	5.807730e-03	5.523741e-03	5.221918e-03	4.902270e-03	4.564859e-03	4.209880e-03	3.837622e-03	3.448550e-03	3.043270e-03	2.622575e-03	2.187362e-03	1.738563e-03	1.276866e-03	8.023233e-04	3.136034e-04	-1.929916e-04	-7.247998e-04	-1.293755e-03	-1.915997e-03	-2.607817e-03	-3.375026e-03	-4.193591e-03	-4.985009e-03	-5.600930e-03	-5.842053e-03	-5.528233e-03	-4.600666e-03	-3.199435e-03	-1.663503e-03	-4.453272e-04	0.000000e+00	
0.000000e+00	1.607583e-04	5.900494e-04	1.182258e-03	1.844208e-03	2.503161e-03	3.113676e-03	3.657082e-03	4.134608e-03	4.557762e-03	4.939828e-03	5.290730e-03	5.615367e-03	5.914358e-03	6.185759e-03	6.426792e-03	6.635078e-03	6.809367e-03	6.949804e-03	7.057931e-03	7.136469e-03	7.189018e-03	7.219670e-03	7.232659e-03	7.232006e-03	7.221284e-03	7.203405e-03	7.180561e-03	7.154177e-03	7.124994e-03	7.093126e-03	7.058216e-03	7.019517e-03	6.976060e-03	6.926708e-03	6.870291e-03	6.805622e-03	6.731592e-03	6.647150e-03	6.551366e-03	6.443389e-03	6.322495e-03	6.188029e-03	6.039455e-03	5.876286e-03	5.698140e-03	5.504669e-03	5.295621e-03	5.070768e-03	4.829972e-03	4.573121e-03	4.300200e-03	4.011231e-03	3.706352e-03	3.385771e-03	3.049838e-03	2.699018e-03	2.333956e-03	1.955428e-03	1.564380e-03	1.161796e-03	7.485877e-04	3.252347e-04	-1.087048e-04	-5.554564e-04	-1.020100e-03	-1.511811e-03	-2.044494e-03	-2.635563e-03	-3.300425e-03	-4.040083e-03	-4.820921e-03	-5.552190e-03	-6.077046e-03	-6.199701e-03	-5.758537e-03	-4.720683e-03	-3.245578e-03	-1.675073e-03	-4.484338e-04	0.000000e+00	
0.000000e+00	1.561101e-04	5.676641e-04	1.123583e-03	1.729898e-03	2.317536e-03	2.847470e-03	3.307776e-03	3.704809e-03	4.052824e-03	4.365782e-03	4.653077e-03	4.918730e-03	5.162669e-03	5.382618e-03	5.575757e-03	5.739822e-03	5.873693e-03	5.977583e-03	6.053006e-03	6.102540e-03	6.129551e-03	6.137818e-03	6.131215e-03	6.113377e-03	6.087494e-03	6.056116e-03	6.021116e-03	5.983649e-03	5.944242e-03	5.902853e-03	5.859023e-03	5.811951e-03	5.760653e-03	5.704008e-03	5.640887e-03	5.570157e-03	5.490775e-03	5.401755e-03	5.302239e-03	5.191439e-03	5.068695e-03	4.933410e-03	4.785102e-03	4.623337e-03	4.447784e-03	4.258150e-03	4.054233e-03	3.835869e-03	3.602985e-03	3.355548e-03	3.093632e-03	2.817364e-03	2.527004e-03	2.222894e-03	1.905541e-03	1.575572e-03	1.233803e-03	8.811707e-04	5.187459e-04	1.475657e-04	-2.315367e-04	-6.183770e-04	-1.014011e-03	-1.421707e-03	-1.848071e-03	-2.304177e-03	-2.805751e-03	-3.370958e-03	-4.013346e-03	-4.727864e-03	-5.470363e-03	-6.137991e-03	-6.566949e-03	-6.566989e-03	-5.995926e-03	-4.846098e-03	-3.295237e-03	-1.688108e-03	-4.516566e-04	0.000000e+00	
0.000000e+00	1.493770e-04	5.379770e-04	1.050822e-03	1.594726e-03	2.105620e-03	2.551503e-03	2.927068e-03	3.243239e-03	3.516372e-03	3.760659e-03	3.984806e-03	4.192023e-03	4.381710e-03	4.551403e-03	4.698326e-03	4.820323e-03	4.916349e-03	4.986581e-03	5.032379e-03	5.056058e-03	5.060632e-03	5.049467e-03	5.026002e-03	4.993435e-03	4.954545e-03	4.911518e-03	4.865921e-03	4.818667e-03	4.770108e-03	4.720085e-03	4.668077e-03	4.613266e-03	4.554686e-03	4.491258e-03	4.421913e-03	4.345585e-03	4.261304e-03	4.168156e-03	4.065350e-03	3.952162e-03	3.827989e-03	3.692287e-03	3.544624e-03	3.384611e-03	3.211962e-03	3.026426e-03	2.827854e-03	2.616131e-03	2.391249e-03	2.153244e-03	1.902275e-03	1.638568e-03	1.362498e-03	1.074539e-03	7.753446e-04	4.656988e-04	1.465745e-04	-1.809505e-04	-5.157115e-04	-8.566688e-04	-1.203145e-03	-1.555360e-03	-1.915130e-03	-2.286929e-03	-2.679026e-03	-3.104408e-03	-3.580364e-03	-4.125132e-03	-4.749276e-03	-5.440381e-03	-6.142927e-03	-6.742320e-03	-7.069508e-03	-6.941838e-03	-6.237525e-03	-4.973688e-03	-3.345612e-03	-1.700855e-03	-4.544061e-04	0.000000e+00	
0.000000e+00	1.406526e-04	5.011630e-04	9.645048e-04	1.439961e-03	1.869580e-03	2.228775e-03	2.518569e-03	2.753813e-03	2.952371e-03	3.128322e-03	3.289623e-03	3.438800e-03	3.574898e-03	3.695402e-03	3.797634e-03	3.879537e-03	3.940062e-03	3.979256e-03	3.998207e-03	3.998850e-03	3.983741e-03	3.955748e-03	3.917805e-03	3.872631e-03	3.822578e-03	3.769470e-03	3.714587e-03	3.658628e-03	3.601809e-03	3.543891e-03	3.484331e-03	3.422325e-03	3.356953e-03	3.287200e-03	3.212071e-03	3.130577e-03	3.041827e-03	2.944977e-03	2.839303e-03	2.724139e-03	2.598937e-03	2.463198e-03	2.316533e-03	2.158590e-03	1.989125e-03	1.807926e-03	1.614885e-03	1.409936e-03	1.193129e-03	9.645654e-04	7.244856e-04	4.732102e-04	2.112246e-04	-6.087035e-05	-3.422805e-04	-6.320757e-04	-9.291419e-04	-1.232288e-03	-1.540298e-03	-1.852196e-03	-2.167559e-03	-2.487145e-03	-2.813698e-03	-3.153074e-03	-3.515316e-03	-3.915263e-03	-4.371371e-03	-4.901102e-03	-5.510762e-03	-6.179249e-03	-6.838980e-03	-7.364236e-03	-7.582625e-03	-7.321215e-03	-6.479689e-03	-5.099779e-03	-3.393753e-03	-1.711656e-03	-4.562543e-04	2.766363e-17	
0.000000e+00	1.298815e-04	4.573894e-04	8.653301e-04	1.267070e-03	1.611758e-03	1.882381e-03	2.085856e-03	2.240310e-03	2.364577e-03	2.472388e-03	2.570978e-03	2.662346e-03	2.745361e-03	2.817577e-03	2.876453e-03	2.920005e-03	2.947114e-03	2.957593e-03	2.952159e-03	2.932257e-03	2.899891e-03	2.857352e-03	2.807011e-03	2.751075e-03	2.691454e-03	2.629614e-03	2.566569e-03	2.502836e-03	2.438524e-03	2.373354e-03	2.306792e-03	2.238079e-03	2.166364e-03	2.090711e-03	2.010213e-03	1.923966e-03	1.831156e-03	1.731011e-03	1.622870e-03	1.506120e-03	1.380262e-03	1.244836e-03	1.099491e-03	9.439096e-04	7.778792e-04	6.012232e-04	4.138744e-04	2.158107e-04	7.134635e-06	-2.119859e-04	-4.412340e-04	-6.801966e-04	-9.282804e-04	-1.184763e-03	-1.448719e-03	-1.719084e-03	-1.994626e-03	-2.274077e-03	-2.556227e-03	-2.840250e-03	-3.126099e-03	-3.415232e-03	-3.711504e-03	-4.022322e-03	-4.359573e-03	-4.739780e-03	-5.182009e-03	-5.701903e-03	-6.300117e-03	-6.945556e-03	-7.558090e-03	-8.001813e-03	-8.103133e-03	-7.701085e-03	-6.718015e-03	-5.220273e-03	-3.436593e-03	-1.718858e-03	-4.567223e-04	0.000000e+00	
-2.764990e-17	1.171506e-04	4.069891e-04	7.541912e-04	1.077739e-03	1.334655e-03	1.515478e-03	1.632468e-03	1.706375e-03	1.756567e-03	1.796279e-03	1.832114e-03	1.865731e-03	1.895991e-03	1.920617e-03	1.937238e-03	1.943914e-03	1.939390e-03	1.923163e-03	1.895477e-03	1.857199e-03	1.809693e-03	1.754602e-03	1.693685e-03	1.628604e-03	1.560815e-03	1.491434e-03	1.421224e-03	1.350545e-03	1.279434e-03	1.207600e-03	1.134547e-03	1.059587e-03	9.819556e-04	9.008138e-04	8.153483e-04	7.247440e-04	6.282668e-04	5.252135e-04	4.149830e-04	2.970121e-04	1.708426e-04	3.605090e-05	-1.076830e-04	-2.606469e-04	-4.230229e-04	-5.949565e-04	-7.764780e-04	-9.675666e-04	-1.168067e-03	-1.377749e-03	-1.596218e-03	-1.822971e-03	-2.057310e-03	-2.298397e-03	-2.545185e-03	-2.796495e-03	-3.051008e-03	-3.307427e-03	-3.564624e-03	-3.822030e-03	-4.080122e-03	-4.341241e-03	-4.610550e-03	-4.897149e-03	-5.214768e-03	-5.581304e-03	-6.015684e-03	-6.530506e-03	-7.119274e-03	-7.739680e-03	-8.298849e-03	-8.651974e-03	-8.626692e-03	-8.076383e-03	-6.947365e-03	-5.330721e-03	-3.471016e-03	-1.720874e-03	-4.553909e-04	0.000000e+00	
0.000000e+00	1.025514e-04	3.503870e-04	6.321266e-04	8.738068e-04	1.040890e-03	1.131253e-03	1.161886e-03	1.155548e-03	1.131785e-03	1.103280e-03	1.076140e-03	1.051877e-03	1.029503e-03	1.007000e-03	9.821915e-04	9.531557e-04	9.184506e-04	8.771826e-04	8.290432e-04	7.742382e-04	7.134170e-04	6.475120e-04	5.776216e-04	5.048334e-04	4.301374e-04	3.542983e-04	2.778422e-04	2.009964e-04	1.237455e-04	4.581659e-05	-3.322521e-05	-1.139784e-04	-1.971022e-04	-2.833284e-04	-3.733684e-04	-4.679452e-04	-5.677126e-04	-6.733064e-04	-7.852720e-04	-9.041272e-04	-1.030293e-03	-1.164161e-03	-1.306025e-03	-1.456145e-03	-1.614676e-03	-1.781734e-03	-1.957314e-03	-2.141352e-03	-2.333641e-03	-2.533887e-03	-2.741619e-03	-2.956246e-03	-3.176968e-03	-3.402840e-03	-3.632708e-03	-3.865306e-03	-4.099266e-03	-4.333330e-03	-4.566545e-03	-4.798736e-03	-5.031076e-03	-5.266989e-03	-5.513132e-03	-5.780403e-03	-6.084256e-03	-6.443484e-03	-6.875913e-03	-7.389683e-03	-7.969597e-03	-8.561072e-03	-9.058644e-03	-9.310320e-03	-9.147682e-03	-8.440991e-03	-7.161925e-03	-5.426404e-03	-3.493927e-03	-1.716245e-03	-4.519154e-04	-2.766133e-17	
0.000000e+00	8.618837e-05	2.880881e-04	5.003239e-04	6.572625e-04	7.331754e-04	7.329217e-04	6.775584e-04	5.912995e-04	4.936000e-04	3.966063e-04	3.060960e-04	2.236268e-04	1.485076e-04	7.906152e-05	1.333041e-05	-5.060013e-05	-1.144003e-04	-1.794087e-04	-2.465514e-04	-3.163527e-04	-3.889430e-04	-4.641578e-04	-5.416046e-04	-6.208016e-04	-7.012428e-04	-7.825180e-04	-8.643317e-04	-9.465777e-04	-1.029303e-03	-1.112746e-03	-1.197260e-03	-1.283337e-03	-1.371518e-03	-1.462419e-03	-1.556641e-03	-1.654813e-03	-1.757508e-03	-1.865295e-03	-1.978665e-03	-2.098095e-03	-2.223972e-03	-2.356658e-03	-2.496421e-03	-2.643499e-03	-2.798020e-03	-2.960070e-03	-3.129609e-03	-3.306529e-03	-3.490570e-03	-3.681374e-03	-3.878395e-03	-4.080953e-03	-4.288156e-03	-4.498960e-03	-4.712129e-03	-4.926340e-03	-5.140239e-03	-5.352687e-03	-5.563030e-03	-5.771641e-03	-5.980589e-03	-6.194584e-03	-6.421943e-03	-6.675379e-03	-6.971811e-03	-7.330240e-03	-7.766204e-03	-8.281811e-03	-8.851625e-03	-9.407976e-03	-9.833415e-03	-9.970939e-03	-9.659116e-03	-8.787757e-03	-7.355301e-03	-5.502459e-03	-3.502353e-03	-1.703666e-03	-4.459946e-04	0.000000e+00	
0.000000e+00	6.822539e-05	2.207076e-04	3.601051e-04	4.302252e-04	4.143120e-04	3.237248e-04	1.829207e-04	1.707238e-05	-1.546369e-04	-3.205293e-04	-4.749742e-04	-6.161823e-04	-7.444137e-04	-8.609274e-04	-9.674306e-04	-1.065828e-03	-1.158037e-03	-1.245877e-03	-1.330939e-03	-1.414531e-03	-1.497618e-03	-1.580857e-03	-1.664605e-03	-1.749021e-03	-1.834107e-03	-1.919820e-03	-2.006098e-03	-2.092952e-03	-2.180452e-03	-2.268786e-03	-2.358217e-03	-2.449115e-03	-2.541893e-03	-2.637042e-03	-2.735048e-03	-2.836441e-03	-2.941711e-03	-3.051360e-03	-3.165828e-03	-3.285548e-03	-3.410876e-03	-3.542148e-03	-3.679607e-03	-3.823466e-03	-3.973830e-03	-4.130752e-03	-4.294157e-03	-4.463891e-03	-4.639640e-03	-4.820981e-03	-5.007293e-03	-5.197813e-03	-5.391564e-03	-5.587424e-03	-5.784101e-03	-5.980271e-03	-6.174664e-03	-6.366368e-03	-6.555171e-03	-6.742185e-03	-6.930578e-03	-7.126547e-03	-7.340173e-03	-7.585889e-03	-7.881628e-03	-8.245679e-03	-8.689871e-03	-9.208601e-03	-9.764751e-03	-1.027711e-02	-1.061738e-02	-1.062624e-02	-1.015260e-02	-9.108562e-03	-7.520662e-03	-5.554030e-03	-3.493552e-03	-1.682049e-03	-4.374202e-04	0.000000e+00	
0.000000e+00	4.883808e-05	1.489377e-04	2.129120e-04	1.949263e-04	8.717537e-05	-9.305909e-05	-3.185763e-04	-5.636662e-04	-8.095280e-04	-1.044846e-03	-1.263948e-03	-1.464640e-03	-1.646628e-03	-1.810675e-03	-1.958192e-03	-2.091055e-03	-2.211424e-03	-2.321611e-03	-2.423899e-03	-2.520417e-03	-2.613010e-03	-2.703201e-03	-2.792145e-03	-2.880680e-03	-2.969347e-03	-3.058495e-03	-3.148309e-03	-3.238924e-03	-3.330433e-03	-3.422971e-03	-3.516701e-03	-3.611865e-03	-3.708739e-03	-3.807680e-03	-3.909056e-03	-4.013291e-03	-4.120787e-03	-4.231980e-03	-4.347253e-03	-4.467001e-03	-4.591543e-03	-4.721189e-03	-4.856159e-03	-4.996639e-03	-5.142708e-03	-5.294388e-03	-5.451563e-03	-5.614034e-03	-5.781431e-03	-5.953265e-03	-6.128844e-03	-6.307330e-03	-6.487676e-03	-6.668709e-03	-6.849127e-03	-7.027665e-03	-7.203237e-03	-7.375291e-03	-7.544230e-03	-7.712106e-03	-7.883398e-03	-8.065946e-03	-8.271616e-03	-8.516300e-03	-8.818273e-03	-9.193925e-03	-9.649767e-03	-1.017074e-02	-1.070684e-02	-1.116332e-02	-1.140280e-02	-1.126684e-02	-1.061832e-02	-9.394466e-03	-7.650949e-03	-5.576473e-03	-3.465151e-03	-1.650583e-03	-4.260746e-04	0.000000e+00	
2.764625e-17	2.823689e-05	7.355542e-05	6.030187e-05	-4.629402e-05	-2.452807e-04	-5.140979e-04	-8.234281e-04	-1.147373e-03	-1.467565e-03	-1.772921e-03	-2.057545e-03	-2.318680e-03	-2.555359e-03	-2.767770e-03	-2.956971e-03	-3.124762e-03	-3.273517e-03	-3.406030e-03	-3.525276e-03	-3.634226e-03	-3.735635e-03	-3.831936e-03	-3.925123e-03	-4.016760e-03	-4.107971e-03	-4.199528e-03	-4.291894e-03	-4.385344e-03	-4.480006e-03	-4.575971e-03	-4.673297e-03	-4.772098e-03	-4.872507e-03	-4.974742e-03	-5.079042e-03	-5.185719e-03	-5.295088e-03	-5.407507e-03	-5.523304e-03	-5.642825e-03	-5.766357e-03	-5.894179e-03	-6.026484e-03	-6.163432e-03	-6.305071e-03	-6.451388e-03	-6.602228e-03	-6.757342e-03	-6.916305e-03	-7.078564e-03	-7.243364e-03	-7.409804e-03	-7.576792e-03	-7.743143e-03	-7.907603e-03	-8.069057e-03	-8.226719e-03	-8.380559e-03	-8.531788e-03	-8.683608e-03	-8.841997e-03	-9.016534e-03	-9.220747e-03	-9.471524e-03	-9.786545e-03	-1.017887e-02	-1.064790e-02	-1.116747e-02	-1.167376e-02	-1.205918e-02	-1.217967e-02	-1.188145e-02	-1.104521e-02	-9.635941e-03	-7.739155e-03	-5.565584e-03	-3.415277e-03	-1.608779e-03	-4.119372e-04	-2.765668e-17	
0.000000e+00	6.662774e-06	-4.581486e-06	-9.606359e-05	-2.909970e-04	-5.800226e-04	-9.359877e-04	-1.328041e-03	-1.730377e-03	-2.125069e-03	-2.501123e-03	-2.852252e-03	-3.174990e-03	-3.467592e-03	-3.729583e-03	-3.961590e-03	-4.165271e-03	-4.343158e-03	-4.498482e-03	-4.634890e-03	-4.756188e-03	-4.866064e-03	-4.967887e-03	-5.064540e-03	-5.158361e-03	-5.251106e-03	-5.344019e-03	-5.437883e-03	-5.533147e-03	-5.629999e-03	-5.728498e-03	-5.828612e-03	-5.930324e-03	-6.033626e-03	-6.138587e-03	-6.245315e-03	-6.354004e-03	-6.464867e-03	-6.578182e-03	-6.694213e-03	-6.813255e-03	-6.935555e-03	-7.061355e-03	-7.190820e-03	-7.324077e-03	-7.461142e-03	-7.601964e-03	-7.746345e-03	-7.893988e-03	-8.044413e-03	-8.197011e-03	-8.350975e-03	-8.505365e-03	-8.659078e-03	-8.810971e-03	-8.959920e-03	-9.105068e-03	-9.246079e-03	-9.383625e-03	-9.519930e-03	-9.659548e-03	-9.810096e-03	-9.982866e-03	-1.019275e-02	-1.045692e-02	-1.079124e-02	-1.120376e-02	-1.168494e-02	-1.219599e-02	-1.265893e-02	-1.295466e-02	-1.293563e-02	-1.245695e-02	-1.142110e-02	-9.823201e-03	-7.778663e-03	-5.517853e-03	-3.342692e-03	-1.556515e-03	-3.950970e-04	-2.765537e-17	
2.764419e-17	-1.562087e-05	-8.454502e-05	-2.544258e-04	-5.366505e-04	-9.139330e-04	-1.355233e-03	-1.828699e-03	-2.308835e-03	-2.778130e-03	-3.225543e-03	-3.644241e-03	-4.029927e-03	-4.379973e-03	-4.693149e-03	-4.969559e-03	-5.210624e-03	-5.418949e-03	-5.598128e-03	-5.752426e-03	-5.886462e-03	-6.004846e-03	-6.111913e-03	-6.211470e-03	-6.306684e-03	-6.400002e-03	-6.493205e-03	-6.587446e-03	-6.683401e-03	-6.781356e-03	-6.881366e-03	-6.983328e-03	-7.087105e-03	-7.192548e-03	-7.299578e-03	-7.408165e-03	-7.518372e-03	-7.630307e-03	-7.744155e-03	-7.860108e-03	-7.978400e-03	-8.099229e-03	-8.222798e-03	-8.349233e-03	-8.478626e-03	-8.610957e-03	-8.746132e-03	-8.883912e-03	-9.023949e-03	-9.165719e-03	-9.308567e-03	-9.451655e-03	-9.594035e-03	-9.734649e-03	-9.872467e-03	-1.000660e-02	-1.013658e-02	-1.026269e-02	-1.038651e-02	-1.051147e-02	-1.064365e-02	-1.079234e-02	-1.097037e-02	-1.119346e-02	-1.147807e-02	-1.183676e-02	-1.227071e-02	-1.275960e-02	-1.325090e-02	-1.365277e-02	-1.383678e-02	-1.365585e-02	-1.297857e-02	-1.173312e-02	-9.946656e-03	-7.763648e-03	-5.430728e-03	-3.246913e-03	-1.494066e-03	-3.757461e-04	0.000000e+00	
0.000000e+00	-3.832260e-05	-1.653382e-04	-4.129383e-04	-7.806354e-04	-1.243808e-03	-1.768233e-03	-2.321530e-03	-2.878686e-03	-3.422559e-03	-3.941932e-03	-4.429301e-03	-4.879428e-03	-5.288708e-03	-5.655056e-03	-5.977946e-03	-6.258445e-03	-6.499114e-03	-6.703804e-03	-6.877315e-03	-7.025017e-03	-7.152423e-03	-7.264833e-03	-7.367014e-03	-7.463014e-03	-7.556041e-03	-7.648481e-03	-7.741931e-03	-7.837358e-03	-7.935200e-03	-8.035554e-03	-8.138273e-03	-8.243122e-03	-8.349819e-03	-8.458141e-03	-8.567910e-03	-8.679056e-03	-8.791568e-03	-8.905527e-03	-9.021040e-03	-9.138271e-03	-9.257360e-03	-9.378458e-03	-9.501649e-03	-9.626980e-03	-9.754390e-03	-9.883746e-03	-1.001476e-02	-1.014705e-02	-1.028006e-02	-1.041309e-02	-1.054533e-02	-1.067585e-02	-1.080372e-02	-1.092811e-02	-1.104849e-02	-1.116496e-02	-1.127859e-02	-1.139207e-02	-1.151021e-02	-1.164069e-02	-1.179440e-02	-1.198531e-02	-1.222916e-02	-1.254040e-02	-1.292653e-02	-1.337993e-02	-1.386788e-02	-1.432351e-02	-1.464224e-02	-1.468945e-02	-1.432311e-02	-1.343021e-02	-1.196822e-02	-9.997452e-03	-7.689506e-03	-5.302860e-03	-3.128293e-03	-1.422102e-03	-3.541745e-04	2.765271e-17	
0.000000e+00	-6.112948e-05	-2.459049e-04	-5.696786e-04	-1.020256e-03	-1.566358e-03	-2.171266e-03	-2.802491e-03	-3.435626e-03	-4.053847e-03	-4.645655e-03	-5.202770e-03	-5.718927e-03	-6.189459e-03	-6.611326e-03	-6.983247e-03	-7.305799e-03	-7.581352e-03	-7.813876e-03	-8.008584e-03	-8.171508e-03	-8.309008e-03	-8.427334e-03	-8.532231e-03	-8.628679e-03	-8.720714e-03	-8.811409e-03	-8.902893e-03	-8.996502e-03	-9.092899e-03	-9.192281e-03	-9.294504e-03	-9.399264e-03	-9.506166e-03	-9.614847e-03	-9.724986e-03	-9.836370e-03	-9.948857e-03	-1.006242e-02	-1.017705e-02	-1.029285e-02	-1.040987e-02	-1.052821e-02	-1.064790e-02	-1.076894e-02	-1.089122e-02	-1.101456e-02	-1.113866e-02	-1.126307e-02	-1.138724e-02	-1.151048e-02	-1.163201e-02	-1.175103e-02	-1.186679e-02	-1.197880e-02	-1.208705e-02	-1.219233e-02	-1.229676e-02	-1.240425e-02	-1.252113e-02	-1.265665e-02	-1.282298e-02	-1.303461e-02	-1.330620e-02	-1.364856e-02	-1.406223e-02	-1.452892e-02	-1.500225e-02	-1.540117e-02	-1.561047e-02	-1.549339e-02	-1.491817e-02	-1.379508e-02	-1.211390e-02	-9.968103e-03	-7.553280e-03	-5.134300e-03	-2.988063e-03	-1.341676e-03	-3.307571e-04	0.000000e+00	
0.000000e+00	-8.370927e-05	-3.251397e-04	-7.226627e-04	-1.252751e-03	-1.878215e-03	-2.560496e-03	-3.267354e-03	-3.975086e-03	-4.667138e-03	-5.331645e-03	-5.959479e-03	-6.543283e-03	-7.077253e-03	-7.557294e-03	-7.981244e-03	-8.349031e-03	-8.662663e-03	-8.926057e-03	-9.144682e-03	-9.325103e-03	-9.474437e-03	-9.599843e-03	-9.708040e-03	-9.804976e-03	-9.895584e-03	-9.983711e-03	-1.007211e-02	-1.016259e-02	-1.025613e-02	-1.035309e-02	-1.045340e-02	-1.055673e-02	-1.066260e-02	-1.077053e-02	-1.088005e-02	-1.099082e-02	-1.110254e-02	-1.121506e-02	-1.132828e-02	-1.144217e-02	-1.155673e-02	-1.167196e-02	-1.178784e-02	-1.190432e-02	-1.202123e-02	-1.213838e-02	-1.225540e-02	-1.237187e-02	-1.248722e-02	-1.260084e-02	-1.271204e-02	-1.282022e-02	-1.292495e-02	-1.302621e-02	-1.312463e-02	-1.322196e-02	-1.332143e-02	-1.342836e-02	-1.355059e-02	-1.369870e-02	-1.388566e-02	-1.412548e-02	-1.443033e-02	-1.480559e-02	-1.524283e-02	-1.571143e-02	-1.615077e-02	-1.646671e-02	-1.653658e-02	-1.622643e-02	-1.542033e-02	-1.405645e-02	-1.215895e-02	-9.853147e-03	-7.354043e-03	-4.926622e-03	-2.828310e-03	-1.254168e-03	-3.059335e-04	0.000000e+00	
2.763944e-17	-1.057139e-04	-4.018996e-04	-8.698641e-04	-1.475319e-03	-2.175951e-03	-2.931975e-03	-3.711713e-03	-4.492235e-03	-5.257223e-03	-5.994391e-03	-6.693720e-03	-7.346723e-03	-7.946400e-03	-8.487509e-03	-8.966874e-03	-9.383611e-03	-9.739172e-03	-1.003722e-02	-1.028328e-02	-1.048429e-02	-1.064798e-02	-1.078236e-02	-1.089507e-02	-1.099306e-02	-1.108220e-02	-1.116722e-02	-1.125159e-02	-1.133769e-02	-1.142692e-02	-1.151992e-02	-1.161676e-02	-1.171714e-02	-1.182055e-02	-1.192641e-02	-1.203414e-02	-1.214324e-02	-1.225328e-02	-1.236398e-02	-1.247509e-02	-1.258650e-02	-1.269808e-02	-1.280978e-02	-1.292149e-02	-1.303310e-02	-1.314442e-02	-1.325519e-02	-1.336506e-02	-1.347362e-02	-1.358037e-02	-1.368478e-02	-1.378638e-02	-1.388486e-02	-1.398023e-02	-1.407309e-02	-1.416491e-02	-1.425850e-02	-1.435837e-02	-1.447126e-02	-1.460633e-02	-1.477507e-02	-1.499042e-02	-1.526468e-02	-1.560581e-02	-1.601177e-02	-1.646335e-02	-1.691640e-02	-1.729631e-02	-1.749805e-02	-1.739579e-02	-1.686404e-02	-1.580838e-02	-1.419875e-02	-1.209447e-02	-9.649778e-03	-7.093174e-03	-4.682949e-03	-2.651895e-03	-1.161224e-03	-2.801850e-04	2.764887e-17	
0.000000e+00	-1.267860e-04	-4.750208e-04	-1.009238e-03	-1.685139e-03	-2.456100e-03	-3.281673e-03	-4.131004e-03	-4.981997e-03	-5.818549e-03	-6.627933e-03	-7.399229e-03	-8.122807e-03	-8.790431e-03	-9.395636e-03	-9.934109e-03	-1.040398e-02	-1.080595e-02	-1.114318e-02	-1.142104e-02	-1.164662e-02	-1.182812e-02	-1.197421e-02	-1.209346e-02	-1.219375e-02	-1.228198e-02	-1.236379e-02	-1.244349e-02	-1.252414e-02	-1.260770e-02	-1.269518e-02	-1.278689e-02	-1.288266e-02	-1.298200e-02	-1.308428e-02	-1.318882e-02	-1.329500e-02	-1.340225e-02	-1.351015e-02	-1.361832e-02	-1.372651e-02	-1.383451e-02	-1.394216e-02	-1.404928e-02	-1.415570e-02	-1.426120e-02	-1.436550e-02	-1.446827e-02	-1.456916e-02	-1.466777e-02	-1.476379e-02	-1.485701e-02	-1.494755e-02	-1.503600e-02	-1.512373e-02	-1.521320e-02	-1.530838e-02	-1.541509e-02	-1.554135e-02	-1.569726e-02	-1.589454e-02	-1.614494e-02	-1.645750e-02	-1.683407e-02	-1.726329e-02	-1.771358e-02	-1.812689e-02	-1.841591e-02	-1.846817e-02	-1.815997e-02	-1.738039e-02	-1.606181e-02	-1.420875e-02	-1.191478e-02	-9.358356e-03	-6.774487e-03	-4.407851e-03	-2.462313e-03	-1.064657e-03	-2.540083e-04	2.764767e-17	
0.000000e+00	-1.465638e-04	-5.433380e-04	-1.138752e-03	-1.879410e-03	-2.715195e-03	-3.605513e-03	-4.520548e-03	-5.439090e-03	-6.345257e-03	-7.225893e-03	-8.069201e-03	-8.864420e-03	-9.602068e-03	-1.027440e-02	-1.087585e-02	-1.140342e-02	-1.185681e-02	-1.223849e-02	-1.255339e-02	-1.280849e-02	-1.301223e-02	-1.317383e-02	-1.330259e-02	-1.340735e-02	-1.349597e-02	-1.357511e-02	-1.364999e-02	-1.372450e-02	-1.380124e-02	-1.388175e-02	-1.396669e-02	-1.405611e-02	-1.414963e-02	-1.424664e-02	-1.434640e-02	-1.444820e-02	-1.455134e-02	-1.465527e-02	-1.475948e-02	-1.486359e-02	-1.496727e-02	-1.507028e-02	-1.517236e-02	-1.527328e-02	-1.537280e-02	-1.547067e-02	-1.556660e-02	-1.566035e-02	-1.575171e-02	-1.584064e-02	-1.592735e-02	-1.601249e-02	-1.609738e-02	-1.618427e-02	-1.627672e-02	-1.637988e-02	-1.650076e-02	-1.664830e-02	-1.683294e-02	-1.706557e-02	-1.735538e-02	-1.770632e-02	-1.811222e-02	-1.855065e-02	-1.897679e-02	-1.931925e-02	-1.948059e-02	-1.934556e-02	-1.879866e-02	-1.774973e-02	-1.616239e-02	-1.407691e-02	-1.161822e-02	-8.982734e-03	-6.404172e-03	-4.107131e-03	-2.263495e-03	-9.663540e-04	-2.278901e-04	0.000000e+00	
0.000000e+00	-1.646912e-04	-6.057078e-04	-1.256421e-03	-2.055392e-03	-2.949824e-03	-3.899427e-03	-4.875606e-03	-5.858091e-03	-6.831248e-03	-7.781535e-03	-8.696336e-03	-9.563805e-03	-1.037323e-02	-1.111555e-02	-1.178387e-02	-1.237391e-02	-1.288420e-02	-1.331623e-02	-1.367422e-02	-1.396478e-02	-1.419631e-02	-1.437833e-02	-1.452075e-02	-1.463321e-02	-1.472456e-02	-1.480245e-02	-1.487311e-02	-1.494136e-02	-1.501057e-02	-1.508294e-02	-1.515962e-02	-1.524100e-02	-1.532692e-02	-1.541686e-02	-1.551011e-02	-1.560588e-02	-1.570342e-02	-1.580203e-02	-1.590111e-02	-1.600013e-02	-1.609868e-02	-1.619639e-02	-1.629297e-02	-1.638815e-02	-1.648168e-02	-1.657335e-02	-1.666300e-02	-1.675055e-02	-1.683607e-02	-1.691989e-02	-1.700274e-02	-1.708593e-02	-1.717160e-02	-1.726300e-02	-1.736474e-02	-1.748307e-02	-1.762585e-02	-1.780238e-02	-1.802251e-02	-1.829500e-02	-1.862476e-02	-1.900882e-02	-1.943116e-02	-1.985710e-02	-2.022858e-02	-2.046266e-02	-2.045566e-02	-2.009528e-02	-1.928074e-02	-1.794829e-02	-1.609584e-02	-1.379855e-02	-1.120781e-02	-8.530305e-03	-5.990525e-03	-3.787501e-03	-2.059584e-03	-8.681682e-04	-2.022827e-04	-2.764548e-17	
0.000000e+00	-1.808244e-04	-6.610354e-04	-1.360351e-03	-2.210464e-03	-3.156686e-03	-4.159429e-03	-5.191469e-03	-6.233525e-03	-7.270270e-03	-8.287855e-03	-9.272928e-03	-1.021264e-02	-1.109508e-02	-1.190989e-02	-1.264880e-02	-1.330611e-02	-1.387902e-02	-1.436780e-02	-1.477568e-02	-1.510858e-02	-1.537457e-02	-1.558318e-02	-1.574470e-02	-1.586942e-02	-1.596707e-02	-1.604628e-02	-1.611434e-02	-1.617704e-02	-1.623871e-02	-1.630229e-02	-1.636960e-02	-1.644150e-02	-1.651815e-02	-1.659926e-02	-1.668421e-02	-1.677225e-02	-1.686257e-02	-1.695440e-02	-1.704705e-02	-1.713989e-02	-1.723242e-02	-1.732420e-02	-1.741488e-02	-1.750418e-02	-1.759191e-02	-1.767794e-02	-1.776228e-02	-1.784510e-02	-1.792683e-02	-1.800827e-02	-1.809077e-02	-1.817639e-02	-1.826814e-02	-1.837026e-02	-1.848829e-02	-1.862923e-02	-1.880130e-02	-1.901327e-02	-1.927318e-02	-1.958611e-02	-1.995091e-02	-2.035588e-02	-2.077378e-02	-2.115727e-02	-2.143622e-02	-2.151932e-02	-2.130182e-02	-2.068080e-02	-1.957661e-02	-1.795643e-02	-1.585356e-02	-1.337490e-02	-1.069149e-02	-8.011736e-03	-5.543491e-03	-3.456181e-03	-1.854700e-03	-7.718284e-04	-1.775856e-04	0.000000e+00	
0.000000e+00	-1.946432e-04	-7.083048e-04	-1.448786e-03	-2.342181e-03	-3.332668e-03	-4.381703e-03	-5.463551e-03	-6.559983e-03	-7.656051e-03	-8.737710e-03	-9.790991e-03	-1.080214e-02	-1.175814e-02	-1.264736e-02	-1.346014e-02	-1.418931e-02	-1.483059e-02	-1.538282e-02	-1.584796e-02	-1.623093e-02	-1.653911e-02	-1.678175e-02	-1.696920e-02	-1.711222e-02	-1.722121e-02	-1.730574e-02	-1.737412e-02	-1.743319e-02	-1.748830e-02	-1.754330e-02	-1.760077e-02	-1.766223e-02	-1.772832e-02	-1.779906e-02	-1.787407e-02	-1.795271e-02	-1.803421e-02	-1.811779e-02	-1.820270e-02	-1.828827e-02	-1.837392e-02	-1.845919e-02	-1.854372e-02	-1.862725e-02	-1.870967e-02	-1.879101e-02	-1.887151e-02	-1.895168e-02	-1.903237e-02	-1.911495e-02	-1.920143e-02	-1.929467e-02	-1.939852e-02	-1.951801e-02	-1.965935e-02	-1.982977e-02	-2.003700e-02	-2.028816e-02	-2.058804e-02	-2.093633e-02	-2.132408e-02	-2.172942e-02	-2.211324e-02	-2.241624e-02	-2.255875e-02	-2.244561e-02	-2.197715e-02	-2.106654e-02	-1.966081e-02	-1.776087e-02	-1.543408e-02	-1.281364e-02	-1.008190e-02	-7.440387e-03	-5.074050e-03	-3.120471e-03	-1.652724e-03	-6.788621e-04	-1.541319e-04	0.000000e+00	
0.000000e+00	-2.058645e-04	-7.466125e-04	-1.520161e-03	-2.448345e-03	-3.474931e-03	-4.562706e-03	-5.687518e-03	-6.832252e-03	-7.982443e-03	-9.123982e-03	-1.024243e-02	-1.132326e-02	-1.235245e-02	-1.331719e-02	-1.420644e-02	-1.501156e-02	-1.572668e-02	-1.634905e-02	-1.687912e-02	-1.732051e-02	-1.767956e-02	-1.796486e-02	-1.818653e-02	-1.835543e-02	-1.848247e-02	-1.857798e-02	-1.865122e-02	-1.871009e-02	-1.876099e-02	-1.880879e-02	-1.885700e-02	-1.890790e-02	-1.896278e-02	-1.902214e-02	-1.908595e-02	-1.915382e-02	-1.922511e-02	-1.929912e-02	-1.937512e-02	-1.945246e-02	-1.953054e-02	-1.960892e-02	-1.968727e-02	-1.976543e-02	-1.984342e-02	-1.992150e-02	-2.000019e-02	-2.008039e-02	-2.016346e-02	-2.025137e-02	-2.034681e-02	-2.045332e-02	-2.057546e-02	-2.071873e-02	-2.088947e-02	-2.109437e-02	-2.133959e-02	-2.162929e-02	-2.196336e-02	-2.233450e-02	-2.272451e-02	-2.310053e-02	-2.341199e-02	-2.358961e-02	-2.354815e-02	-2.319429e-02	-2.244011e-02	-2.122105e-02	-1.951491e-02	-1.735671e-02	-1.484403e-02	-1.212882e-02	-9.395741e-03	-6.831472e-03	-4.593532e-03	-2.787342e-03	-1.457113e-03	-5.905409e-04	-1.321775e-04	0.000000e+00	
-2.763159e-17	-2.142458e-04	-7.751973e-04	-1.573155e-03	-2.527082e-03	-3.581005e-03	-4.699284e-03	-5.859421e-03	-7.045483e-03	-8.243606e-03	-9.439775e-03	-1.061925e-02	-1.176689e-02	-1.286782e-02	-1.390812e-02	-1.487549e-02	-1.575982e-02	-1.655363e-02	-1.725247e-02	-1.785511e-02	-1.836356e-02	-1.878282e-02	-1.912044e-02	-1.938591e-02	-1.958987e-02	-1.974342e-02	-1.985742e-02	-1.994194e-02	-2.000585e-02	-2.005661e-02	-2.010020e-02	-2.014112e-02	-2.018258e-02	-2.022665e-02	-2.027449e-02	-2.032657e-02	-2.038287e-02	-2.044304e-02	-2.050657e-02	-2.057284e-02	-2.064130e-02	-2.071143e-02	-2.078287e-02	-2.085539e-02	-2.092898e-02	-2.100387e-02	-2.108058e-02	-2.116000e-02	-2.124346e-02	-2.133283e-02	-2.143064e-02	-2.154015e-02	-2.166545e-02	-2.181140e-02	-2.198349e-02	-2.218742e-02	-2.242834e-02	-2.270960e-02	-2.303086e-02	-2.338565e-02	-2.375822e-02	-2.412032e-02	-2.442829e-02	-2.462170e-02	-2.462476e-02	-2.435183e-02	-2.371788e-02	-2.265321e-02	-2.112050e-02	-1.913012e-02	-1.674890e-02	-1.409831e-02	-1.134025e-02	-8.652700e-03	-6.201053e-03	-4.112940e-03	-2.463089e-03	-1.270782e-03	-5.078618e-04	-1.119088e-04	2.764192e-17	
0.000000e+00	-2.196067e-04	-7.934801e-04	-1.606748e-03	-2.576910e-03	-3.648884e-03	-4.788794e-03	-5.975848e-03	-7.195363e-03	-8.434209e-03	-9.678643e-03	-1.091382e-02	-1.212416e-02	-1.329408e-02	-1.440871e-02	-1.545460e-02	-1.642024e-02	-1.729659e-02	-1.807746e-02	-1.875981e-02	-1.934386e-02	-1.983294e-02	-2.023322e-02	-2.055314e-02	-2.080275e-02	-2.099297e-02	-2.113487e-02	-2.123911e-02	-2.131538e-02	-2.137214e-02	-2.141644e-02	-2.145388e-02	-2.148867e-02	-2.152382e-02	-2.156130e-02	-2.160223e-02	-2.164714e-02	-2.169610e-02	-2.174892e-02	-2.180526e-02	-2.186474e-02	-2.192704e-02	-2.199196e-02	-2.205945e-02	-2.212973e-02	-2.220329e-02	-2.228097e-02	-2.236402e-02	-2.245422e-02	-2.255388e-02	-2.266598e-02	-2.279413e-02	-2.294259e-02	-2.311602e-02	-2.331917e-02	-2.355615e-02	-2.382937e-02	-2.413800e-02	-2.447581e-02	-2.482865e-02	-2.517157e-02	-2.546632e-02	-2.565981e-02	-2.568479e-02	-2.546368e-02	-2.491655e-02	-2.397309e-02	-2.258731e-02	-2.075202e-02	-1.850926e-02	-1.595268e-02	-1.321945e-02	-1.047211e-02	-7.874079e-03	-5.565027e-03	-3.642375e-03	-2.153105e-03	-1.096052e-03	-4.315482e-04	-9.344263e-05	2.764120e-17	
0.000000e+00	-2.218358e-04	-8.010903e-04	-1.620275e-03	-2.596825e-03	-3.677128e-03	-4.829231e-03	-6.034078e-03	-7.278305e-03	-8.549649e-03	-9.834835e-03	-1.111911e-02	-1.238668e-02	-1.362143e-02	-1.480770e-02	-1.593101e-02	-1.697860e-02	-1.793994e-02	-1.880718e-02	-1.957542e-02	-2.024293e-02	-2.081118e-02	-2.128463e-02	-2.167031e-02	-2.197723e-02	-2.221573e-02	-2.239675e-02	-2.253118e-02	-2.262931e-02	-2.270045e-02	-2.275265e-02	-2.279258e-02	-2.282555e-02	-2.285557e-02	-2.288556e-02	-2.291747e-02	-2.295252e-02	-2.299138e-02	-2.303434e-02	-2.308144e-02	-2.313265e-02	-2.318793e-02	-2.324736e-02	-2.331116e-02	-2.337982e-02	-2.345416e-02	-2.353533e-02	-2.362496e-02	-2.372515e-02	-2.383855e-02	-2.396831e-02	-2.411806e-02	-2.429166e-02	-2.449291e-02	-2.472488e-02	-2.498900e-02	-2.528371e-02	-2.560269e-02	-2.593271e-02	-2.625120e-02	-2.652409e-02	-2.670435e-02	-2.673218e-02	-2.653781e-02	-2.604757e-02	-2.519350e-02	-2.392574e-02	-2.222560e-02	-2.011624e-02	-1.766766e-02	-1.499303e-02	-1.223607e-02	-9.551237e-03	-7.081357e-03	-4.938216e-03	-3.190616e-03	-1.861763e-03	-9.346668e-04	-3.620865e-04	-7.683886e-05	0.000000e+00	
2.762939e-17	-2.208810e-04	-7.978863e-04	-1.613469e-03	-2.586360e-03	-3.664958e-03	-4.819353e-03	-6.032241e-03	-7.291631e-03	-8.586275e-03	-9.903561e-03	-1.122907e-02	-1.254698e-02	-1.384085e-02	-1.509443e-02	-1.629235e-02	-1.742077e-02	-1.846783e-02	-1.942409e-02	-2.028286e-02	-2.104047e-02	-2.169635e-02	-2.225303e-02	-2.271577e-02	-2.309219e-02	-2.339160e-02	-2.362437e-02	-2.380127e-02	-2.393287e-02	-2.402906e-02	-2.409872e-02	-2.414953e-02	-2.418785e-02	-2.421880e-02	-2.424629e-02	-2.427325e-02	-2.430175e-02	-2.433318e-02	-2.436848e-02	-2.440824e-02	-2.445290e-02	-2.450283e-02	-2.455848e-02	-2.462043e-02	-2.468950e-02	-2.476682e-02	-2.485386e-02	-2.495250e-02	-2.506504e-02	-2.519416e-02	-2.534286e-02	-2.551422e-02	-2.571107e-02	-2.593547e-02	-2.618781e-02	-2.646572e-02	-2.676255e-02	-2.706552e-02	-2.735376e-02	-2.759646e-02	-2.775154e-02	-2.776570e-02	-2.757642e-02	-2.711669e-02	-2.632270e-02	-2.514416e-02	-2.355564e-02	-2.156681e-02	-1.922857e-02	-1.663257e-02	-1.390287e-02	-1.118069e-02	-8.605187e-03	-6.294853e-03	-4.333673e-03	-2.764888e-03	-1.592414e-03	-7.878494e-04	-2.997826e-04	-6.213903e-05	2.763996e-17	
0.000000e+00	-2.168030e-04	-7.840028e-04	-1.586506e-03	-2.545655e-03	-3.612341e-03	-4.758796e-03	-5.969462e-03	-7.233769e-03	-8.541614e-03	-9.881257e-03	-1.123883e-02	-1.259875e-02	-1.394446e-02	-1.525928e-02	-1.652716e-02	-1.773333e-02	-1.886477e-02	-1.991063e-02	-2.086257e-02	-2.171503e-02	-2.246541e-02	-2.311415e-02	-2.366453e-02	-2.412239e-02	-2.449563e-02	-2.479362e-02	-2.502658e-02	-2.520495e-02	-2.533888e-02	-2.543784e-02	-2.551032e-02	-2.556367e-02	-2.560402e-02	-2.563638e-02	-2.566468e-02	-2.569196e-02	-2.572049e-02	-2.575197e-02	-2.578770e-02	-2.582870e-02	-2.587588e-02	-2.593013e-02	-2.599245e-02	-2.606401e-02	-2.614621e-02	-2.624076e-02	-2.634962e-02	-2.647501e-02	-2.661931e-02	-2.678482e-02	-2.697346e-02	-2.718626e-02	-2.742259e-02	-2.767923e-02	-2.794902e-02	-2.821938e-02	-2.847069e-02	-2.867468e-02	-2.879340e-02	-2.877916e-02	-2.857606e-02	-2.812375e-02	-2.736358e-02	-2.624710e-02	-2.474579e-02	-2.286026e-02	-2.062678e-02	-1.811865e-02	-1.544120e-02	-1.272043e-02	-1.008719e-02	-7.660334e-03	-5.532639e-03	-3.762226e-03	-2.370762e-03	-1.347431e-03	-6.563688e-04	-2.447736e-04	-4.933047e-05	2.763943e-17	
0.000000e+00	-2.097233e-04	-7.598217e-04	-1.540028e-03	-2.475493e-03	-3.520057e-03	-4.648166e-03	-5.845991e-03	-7.104410e-03	-8.414585e-03	-9.765842e-03	-1.114512e-02	-1.253730e-02	-1.392594e-02	-1.529416e-02	-1.662540e-02	-1.790413e-02	-1.911636e-02	-2.025002e-02	-2.129531e-02	-2.224495e-02	-2.309441e-02	-2.384202e-02	-2.448895e-02	-2.503904e-02	-2.549842e-02	-2.587505e-02	-2.617815e-02	-2.641761e-02	-2.660345e-02	-2.674538e-02	-2.685243e-02	-2.693272e-02	-2.699333e-02	-2.704026e-02	-2.707847e-02	-2.711202e-02	-2.714413e-02	-2.717738e-02	-2.721385e-02	-2.725526e-02	-2.730312e-02	-2.735885e-02	-2.742386e-02	-2.749963e-02	-2.758778e-02	-2.769003e-02	-2.780820e-02	-2.794410e-02	-2.809929e-02	-2.827483e-02	-2.847076e-02	-2.868551e-02	-2.891496e-02	-2.915145e-02	-2.938244e-02	-2.958922e-02	-2.974563e-02	-2.981722e-02	-2.976119e-02	-2.952769e-02	-2.906274e-02	-2.831335e-02	-2.723440e-02	-2.579682e-02	-2.399572e-02	-2.185662e-02	-1.943789e-02	-1.682804e-02	-1.413750e-02	-1.148606e-02	-8.988333e-03	-6.740295e-03	-4.809755e-03	-3.232212e-03	-2.012140e-03	-1.128252e-03	-5.405695e-04	-1.970778e-04	-3.839922e-05	0.000000e+00	
0.000000e+00	-1.998236e-04	-7.259948e-04	-1.475145e-03	-2.377326e-03	-3.389744e-03	-4.489117e-03	-5.663309e-03	-6.904657e-03	-8.205682e-03	-9.556955e-03	-1.094646e-02	-1.235980e-02	-1.378094e-02	-1.519296e-02	-1.657901e-02	-1.792296e-02	-1.921002e-02	-2.042711e-02	-2.156318e-02	-2.260947e-02	-2.355969e-02	-2.441019e-02	-2.516005e-02	-2.581096e-02	-2.636708e-02	-2.683461e-02	-2.722136e-02	-2.753624e-02	-2.778870e-02	-2.798829e-02	-2.814421e-02	-2.826509e-02	-2.835870e-02	-2.843191e-02	-2.849064e-02	-2.853990e-02	-2.858387e-02	-2.862605e-02	-2.866933e-02	-2.871619e-02	-2.876877e-02	-2.882899e-02	-2.889864e-02	-2.897943e-02	-2.907301e-02	-2.918092e-02	-2.930449e-02	-2.944467e-02	-2.960172e-02	-2.977485e-02	-2.996156e-02	-3.015698e-02	-3.035294e-02	-3.053693e-02	-3.069100e-02	-3.079081e-02	-3.080495e-02	-3.069502e-02	-3.041662e-02	-2.992189e-02	-2.916358e-02	-2.810077e-02	-2.670566e-02	-2.497049e-02	-2.291325e-02	-2.058054e-02	-1.804639e-02	-1.540646e-02	-1.276825e-02	-1.023900e-02	-7.913545e-03	-5.864691e-03	-4.137663e-03	-2.749297e-03	-1.691200e-03	-9.353585e-04	-4.403466e-04	-1.565518e-04	-2.932669e-05	0.000000e+00	
0.000000e+00	-1.874816e-04	-6.834920e-04	-1.393449e-03	-2.253296e-03	-3.223926e-03	-4.284387e-03	-5.424197e-03	-6.637128e-03	-7.917123e-03	-9.256154e-03	-1.064347e-02	-1.206569e-02	-1.350740e-02	-1.495195e-02	-1.638236e-02	-1.778209e-02	-1.913568e-02	-2.042923e-02	-2.165064e-02	-2.278991e-02	-2.383925e-02	-2.479326e-02	-2.564905e-02	-2.640624e-02	-2.706686e-02	-2.763516e-02	-2.811723e-02	-2.852058e-02	-2.885366e-02	-2.912542e-02	-2.934485e-02	-2.952068e-02	-2.966110e-02	-2.977358e-02	-2.986478e-02	-2.994056e-02	-3.000597e-02	-3.006534e-02	-3.012237e-02	-3.018023e-02	-3.024164e-02	-3.030897e-02	-3.038427e-02	-3.046933e-02	-3.056559e-02	-3.067411e-02	-3.079538e-02	-3.092905e-02	-3.107360e-02	-3.122582e-02	-3.138022e-02	-3.152824e-02	-3.165745e-02	-3.175066e-02	-3.178520e-02	-3.173246e-02	-3.155799e-02	-3.122248e-02	-3.068379e-02	-2.990037e-02	-2.883595e-02	-2.746512e-02	-2.577918e-02	-2.379114e-02	-2.153857e-02	-1.908338e-02	-1.650783e-02	-1.390702e-02	-1.137903e-02	-9.014431e-03	-6.887122e-03	-5.048242e-03	-3.523851e-03	-2.316300e-03	-1.408279e-03	-7.681379e-04	-3.550245e-04	-1.227619e-04	-2.192457e-05	2.763815e-17	
-2.762778e-17	-1.729553e-04	-6.333965e-04	-1.296952e-03	-2.106161e-03	-3.025967e-03	-4.037794e-03	-5.132751e-03	-6.306006e-03	-7.552948e-03	-8.867064e-03	-1.023907e-02	-1.165686e-02	-1.310594e-02	-1.457019e-02	-1.603274e-02	-1.747680e-02	-1.888641e-02	-2.024693e-02	-2.154542e-02	-2.277084e-02	-2.391416e-02	-2.496853e-02	-2.592932e-02	-2.679424e-02	-2.756329e-02	-2.823866e-02	-2.882453e-02	-2.932670e-02	-2.975224e-02	-3.010909e-02	-3.040558e-02	-3.065013e-02	-3.085094e-02	-3.101576e-02	-3.115171e-02	-3.126523e-02	-3.136206e-02	-3.144719e-02	-3.152499e-02	-3.159919e-02	-3.167296e-02	-3.174895e-02	-3.182932e-02	-3.191569e-02	-3.200904e-02	-3.210964e-02	-3.221677e-02	-3.232841e-02	-3.244088e-02	-3.254826e-02	-3.264183e-02	-3.270938e-02	-3.273458e-02	-3.269643e-02	-3.256897e-02	-3.232146e-02	-3.191931e-02	-3.132577e-02	-3.050484e-02	-2.942504e-02	-2.806406e-02	-2.641356e-02	-2.448343e-02	-2.230449e-02	-1.992874e-02	-1.742664e-02	-1.488145e-02	-1.238134e-02	-1.001056e-02	-7.841160e-03	-5.926925e-03	-4.300132e-03	-2.971550e-03	-1.933038e-03	-1.161754e-03	-6.247948e-04	-2.832708e-04	-9.508640e-05	-1.610509e-05	0.000000e+00	
0.000000e+00	-1.566862e-04	-5.771151e-04	-1.188046e-03	-1.939283e-03	-2.800055e-03	-3.754193e-03	-4.794356e-03	-5.917037e-03	-7.119049e-03	-8.395457e-03	-9.738605e-03	-1.113790e-02	-1.258007e-02	-1.404984e-02	-1.553070e-02	-1.700582e-02	-1.845885e-02	-1.987458e-02	-2.123929e-02	-2.254105e-02	-2.376984e-02	-2.491760e-02	-2.597828e-02	-2.694795e-02	-2.782476e-02	-2.860895e-02	-2.930271e-02	-2.991000e-02	-3.043621e-02	-3.088787e-02	-3.127229e-02	-3.159713e-02	-3.187018e-02	-3.209903e-02	-3.229091e-02	-3.245252e-02	-3.258994e-02	-3.270862e-02	-3.281329e-02	-3.290806e-02	-3.299631e-02	-3.308077e-02	-3.316343e-02	-3.324551e-02	-3.332727e-02	-3.340790e-02	-3.348518e-02	-3.355522e-02	-3.361198e-02	-3.364684e-02	-3.364807e-02	-3.360037e-02	-3.348448e-02	-3.327705e-02	-3.295094e-02	-3.247598e-02	-3.182055e-02	-3.095391e-02	-2.984938e-02	-2.848806e-02	-2.686282e-02	-2.498181e-02	-2.287086e-02	-2.057393e-02	-1.815132e-02	-1.567542e-02	-1.322442e-02	-1.087510e-02	-8.695627e-03	-6.739816e-03	-5.043519e-03	-3.623658e-03	-2.479603e-03	-1.596254e-03	-9.479411e-04	-5.022366e-04	-2.230171e-04	-7.243421e-05	-1.156440e-05	0.000000e+00	
2.762773e-17	-1.393619e-04	-5.162492e-04	-1.069485e-03	-1.756559e-03	-2.551089e-03	-3.439391e-03	-4.415607e-03	-5.477461e-03	-6.623127e-03	-7.849251e-03	-9.149908e-03	-1.051622e-02	-1.193643e-02	-1.339640e-02	-1.488033e-02	-1.637160e-02	-1.785368e-02	-1.931081e-02	-2.072860e-02	-2.209432e-02	-2.339704e-02	-2.462772e-02	-2.577917e-02	-2.684612e-02	-2.782516e-02	-2.871479e-02	-2.951534e-02	-3.022889e-02	-3.085902e-02	-3.141063e-02	-3.188961e-02	-3.230250e-02	-3.265624e-02	-3.295785e-02	-3.321422e-02	-3.343189e-02	-3.361695e-02	-3.377489e-02	-3.391055e-02	-3.402805e-02	-3.413074e-02	-3.422112e-02	-3.430078e-02	-3.437026e-02	-3.442889e-02	-3.447457e-02	-3.450351e-02	-3.450988e-02	-3.448548e-02	-3.441934e-02	-3.429741e-02	-3.410234e-02	-3.381345e-02	-3.340708e-02	-3.285732e-02	-3.213737e-02	-3.122149e-02	-3.008762e-02	-2.872041e-02	-2.711441e-02	-2.527695e-02	-2.323019e-02	-2.101165e-02	-1.867298e-02	-1.627677e-02	-1.389168e-02	-1.158655e-02	-9.424369e-03	-7.457067e-03	-5.721902e-03	-4.239900e-03	-3.016306e-03	-2.042652e-03	-1.299801e-03	-7.612499e-04	-3.961263e-04	-1.714405e-04	-5.332687e-05	-7.703932e-06	0.000000e+00	
0.000000e+00	-1.209295e-04	-4.520927e-04	-9.441358e-04	-1.562146e-03	-2.284494e-03	-3.099970e-03	-4.004132e-03	-4.995853e-03	-6.074558e-03	-7.238413e-03	-8.483252e-03	-9.802049e-03	-1.118482e-02	-1.261891e-02	-1.408955e-02	-1.558068e-02	-1.707578e-02	-1.855877e-02	-2.001459e-02	-2.142973e-02	-2.279239e-02	-2.409262e-02	-2.532228e-02	-2.647500e-02	-2.754613e-02	-2.853272e-02	-2.943349e-02	-3.024874e-02	-3.098031e-02	-3.163132e-02	-3.220603e-02	-3.270956e-02	-3.314763e-02	-3.352627e-02	-3.385160e-02	-3.412958e-02	-3.436586e-02	-3.456561e-02	-3.473335e-02	-3.487291e-02	-3.498726e-02	-3.507841e-02	-3.514728e-02	-3.519357e-02	-3.521551e-02	-3.520973e-02	-3.517090e-02	-3.509156e-02	-3.496180e-02	-3.476909e-02	-3.449816e-02	-3.413108e-02	-3.364760e-02	-3.302593e-02	-3.224380e-02	-3.128019e-02	-3.011743e-02	-2.874361e-02	-2.715520e-02	-2.535934e-02	-2.337548e-02	-2.123594e-02	-1.898504e-02	-1.667675e-02	-1.437087e-02	-1.212834e-02	-1.000627e-02	-8.053419e-03	-6.306782e-03	-4.789764e-03	-3.511965e-03	-2.470424e-03	-1.651839e-03	-1.035253e-03	-5.946945e-04	-3.013657e-04	-1.253044e-04	-3.641226e-05	-4.572051e-06	0.000000e+00	
0.000000e+00	-1.024925e-04	-3.867376e-04	-8.150680e-04	-1.360606e-03	-2.006204e-03	-2.743150e-03	-3.568436e-03	-4.481938e-03	-5.484193e-03	-6.574766e-03	-7.751194e-03	-9.008372e-03	-1.033826e-02	-1.172999e-02	-1.317019e-02	-1.464375e-02	-1.613452e-02	-1.762630e-02	-1.910349e-02	-2.055180e-02	-2.195853e-02	-2.331279e-02	-2.460551e-02	-2.582934e-02	-2.697863e-02	-2.804926e-02	-2.903860e-02	-2.994549e-02	-3.077011e-02	-3.151390e-02	-3.217944e-02	-3.277023e-02	-3.329050e-02	-3.374495e-02	-3.413856e-02	-3.447631e-02	-3.476300e-02	-3.500305e-02	-3.520034e-02	-3.535802e-02	-3.547840e-02	-3.556273e-02	-3.561112e-02	-3.562230e-02	-3.559345e-02	-3.552004e-02	-3.539558e-02	-3.521149e-02	-3.495696e-02	-3.461895e-02	-3.418235e-02	-3.363031e-02	-3.294493e-02	-3.210824e-02	-3.110361e-02	-2.991742e-02	-2.854108e-02	-2.697300e-02	-2.522045e-02	-2.330089e-02	-2.124243e-02	-1.908323e-02	-1.686971e-02	-1.465363e-02	-1.248842e-02	-1.042507e-02	-8.508417e-03	-6.773998e-03	-5.246207e-03	-3.937672e-03	-2.849857e-03	-1.974565e-03	-1.295988e-03	-7.928805e-04	-4.405209e-04	-2.123598e-04	-8.111645e-05	-1.952616e-05	-1.086652e-06	0.000000e+00	
2.762803e-17	-8.450366e-05	-3.215584e-04	-6.853972e-04	-1.156529e-03	-1.722280e-03	-2.376549e-03	-3.117622e-03	-3.946299e-03	-4.864060e-03	-5.871684e-03	-6.968297e-03	-8.150658e-03	-9.412767e-03	-1.074575e-02	-1.213805e-02	-1.357586e-02	-1.504386e-02	-1.652606e-02	-1.800658e-02	-1.947042e-02	-2.090395e-02	-2.229524e-02	-2.363418e-02	-2.491245e-02	-2.612340e-02	-2.726191e-02	-2.832429e-02	-2.930813e-02	-3.021225e-02	-3.103660e-02	-3.178216e-02	-3.245079e-02	-3.304513e-02	-3.356835e-02	-3.402401e-02	-3.441578e-02	-3.474728e-02	-3.502186e-02	-3.524240e-02	-3.541112e-02	-3.552940e-02	-3.559761e-02	-3.561494e-02	-3.557921e-02	-3.548675e-02	-3.533220e-02	-3.510844e-02	-3.480653e-02	-3.441576e-02	-3.392380e-02	-3.331711e-02	-3.258149e-02	-3.170299e-02	-3.066898e-02	-2.946958e-02	-2.809920e-02	-2.655815e-02	-2.485402e-02	-2.300276e-02	-2.102904e-02	-1.896581e-02	-1.685299e-02	-1.473520e-02	-1.265890e-02	-1.066913e-02	-8.806412e-03	-7.104083e-03	-5.586497e-03	-4.268193e-03	-3.154033e-03	-2.240166e-03	-1.515494e-03	-9.633134e-04	-5.629956e-04	-2.913917e-04	-1.239275e-04	-3.560071e-05	-1.302242e-06	3.165316e-06	0.000000e+00	
0.000000e+00	-6.587354e-05	-2.573883e-04	-5.577571e-04	-9.541121e-04	-1.438732e-03	-2.007847e-03	-2.661074e-03	-3.400045e-03	-4.226988e-03	-5.143721e-03	-6.150727e-03	-7.246487e-03	-8.427031e-03	-9.685626e-03	-1.101275e-02	-1.239635e-02	-1.382242e-02	-1.527563e-02	-1.674021e-02	-1.820070e-02	-1.964262e-02	-2.105293e-02	-2.242034e-02	-2.373534e-02	-2.499020e-02	-2.617878e-02	-2.729639e-02	-2.833957e-02	-2.930603e-02	-3.019445e-02	-3.100443e-02	-3.173637e-02	-3.239135e-02	-3.297099e-02	-3.347730e-02	-3.391248e-02	-3.427877e-02	-3.457821e-02	-3.481247e-02	-3.498265e-02	-3.508911e-02	-3.513127e-02	-3.510747e-02	-3.501483e-02	-3.484910e-02	-3.460463e-02	-3.427434e-02	-3.384979e-02	-3.332136e-02	-3.267862e-02	-3.191082e-02	-3.100765e-02	-2.996010e-02	-2.876164e-02	-2.740938e-02	-2.590534e-02	-2.425750e-02	-2.248064e-02	-2.059659e-02	-1.863395e-02	-1.662706e-02	-1.461430e-02	-1.263586e-02	-1.073119e-02	-8.936493e-03	-7.282483e-03	-5.792753e-03	-4.482858e-03	-3.360194e-03	-2.424485e-03	-1.668743e-03	-1.080555e-03	-6.433482e-04	-3.375066e-04	-1.414409e-04	-3.228856e-05	1.345185e-05	1.889264e-05	7.140986e-06	-2.763632e-17	
-2.762833e-17	-5.032735e-05	-1.975495e-04	-4.352018e-04	-7.581219e-04	-1.161720e-03	-1.644804e-03	-2.208335e-03	-2.854524e-03	-3.586286e-03	-4.406185e-03	-5.315768e-03	-6.315059e-03	-7.401959e-03	-8.571842e-03	-9.817406e-03	-1.112871e-02	-1.249346e-02	-1.389758e-02	-1.532594e-02	-1.676303e-02	-1.819381e-02	-1.960423e-02	-2.098172e-02	-2.231543e-02	-2.359626e-02	-2.481687e-02	-2.597141e-02	-2.705540e-02	-2.806551e-02	-2.899938e-02	-2.985545e-02	-3.063288e-02	-3.133141e-02	-3.195124e-02	-3.249293e-02	-3.295722e-02	-3.334492e-02	-3.365671e-02	-3.389300e-02	-3.405373e-02	-3.413826e-02	-3.414515e-02	-3.407209e-02	-3.391577e-02	-3.367182e-02	-3.333486e-02	-3.289853e-02	-3.235569e-02	-3.169873e-02	-3.091999e-02	-3.001237e-02	-2.897008e-02	-2.778947e-02	-2.646999e-02	-2.501515e-02	-2.343333e-02	-2.173833e-02	-1.994968e-02	-1.809231e-02	-1.619585e-02	-1.429329e-02	-1.241934e-02	-1.060839e-02	-8.892516e-03	-7.299684e-03	-5.852286e-03	-4.566257e-03	-3.450735e-03	-2.508250e-03	-1.735375e-03	-1.123548e-03	-6.599618e-04	-3.285889e-04	-1.110167e-04	1.312220e-05	6.529697e-05	6.769114e-05	4.353723e-05	1.418653e-05	0.000000e+00	
0.000000e+00	-3.453294e-05	-1.404345e-04	-3.199473e-04	-5.719383e-04	-8.964626e-04	-1.294722e-03	-1.768511e-03	-2.320923e-03	-2.955293e-03	-3.674590e-03	-4.481275e-03	-5.376587e-03	-6.359989e-03	-7.428854e-03	-8.578112e-03	-9.800089e-03	-1.108463e-02	-1.241945e-02	-1.379060e-02	-1.518322e-02	-1.658215e-02	-1.797270e-02	-1.934115e-02	-2.067524e-02	-2.196433e-02	-2.319952e-02	-2.437358e-02	-2.548074e-02	-2.651653e-02	-2.747753e-02	-2.836118e-02	-2.916559e-02	-2.988941e-02	-3.053167e-02	-3.109171e-02	-3.156902e-02	-3.196315e-02	-3.227356e-02	-3.249952e-02	-3.263997e-02	-3.269340e-02	-3.265775e-02	-3.253034e-02	-3.230780e-02	-3.198612e-02	-3.156069e-02	-3.102649e-02	-3.037831e-02	-2.961113e-02	-2.872060e-02	-2.770360e-02	-2.655892e-02	-2.528797e-02	-2.389548e-02	-2.239013e-02	-2.078495e-02	-1.909752e-02	-1.734974e-02	-1.556728e-02	-1.377862e-02	-1.201373e-02	-1.030254e-02	-8.673419e-03	-7.151628e-03	-5.758154e-03	-4.508839e-03	-3.413958e-03	-2.478223e-03	-1.701068e-03	-1.077181e-03	-5.972909e-04	-2.487970e-04	-1.622641e-05	1.178519e-04	1.724383e-04	1.683186e-04	1.267929e-04	6.988778e-05	2.075402e-05	2.763593e-17	
0.000000e+00	-1.836006e-05	-8.801467e-05	-2.133147e-04	-3.987196e-04	-6.481470e-04	-9.641872e-04	-1.350310e-03	-1.810097e-03	-2.346919e-03	-2.964265e-03	-3.665170e-03	-4.451616e-03	-5.324374e-03	-6.282549e-03	-7.323105e-03	-8.440671e-03	-9.627463e-03	-1.087337e-02	-1.216630e-02	-1.349265e-02	-1.483789e-02	-1.618727e-02	-1.752639e-02	-1.884176e-02	-2.012122e-02	-2.135415e-02	-2.253158e-02	-2.364614e-02	-2.469189e-02	-2.566413e-02	-2.655918e-02	-2.737413e-02	-2.810670e-02	-2.875497e-02	-2.931736e-02	-2.979241e-02	-3.017872e-02	-3.047486e-02	-3.067928e-02	-3.079018e-02	-3.080553e-02	-3.072297e-02	-3.053979e-02	-3.025298e-02	-2.985925e-02	-2.935525e-02	-2.873767e-02	-2.800362e-02	-2.715092e-02	-2.617861e-02	-2.508740e-02	-2.388024e-02	-2.256280e-02	-2.114395e-02	-1.963604e-02	-1.805504e-02	-1.642033e-02	-1.475434e-02	-1.308177e-02	-1.142861e-02	-9.821027e-03	-8.284077e-03	-6.840568e-03	-5.510019e-03	-4.307902e-03	-3.245177e-03	-2.328111e-03	-1.558398e-03	-9.335222e-04	-4.471133e-04	-8.944611e-05	1.517991e-04	2.912810e-04	3.458408e-04	3.336355e-04	2.740437e-04	1.883689e-04	9.814763e-05	2.643387e-05	0.000000e+00	
2.762874e-17	-1.187120e-05	-4.542782e-05	-1.187919e-04	-2.433695e-04	-4.217354e-04	-6.599274e-04	-9.623555e-04	-1.332213e-03	-1.773565e-03	-2.290122e-03	-2.884889e-03	-3.560432e-03	-4.318471e-03	-5.159368e-03	-6.081838e-03	-7.082669e-03	-8.156449e-03	-9.295507e-03	-1.049003e-02	-1.172833e-02	-1.299730e-02	-1.428289e-02	-1.557075e-02	-1.684677e-02	-1.809759e-02	-1.931098e-02	-2.047617e-02	-2.158387e-02	-2.262632e-02	-2.359717e-02	-2.449129e-02	-2.530454e-02	-2.603357e-02	-2.667562e-02	-2.722831e-02	-2.768952e-02	-2.805725e-02	-2.832953e-02	-2.850439e-02	-2.857975e-02	-2.855344e-02	-2.842319e-02	-2.818669e-02	-2.784163e-02	-2.738582e-02	-2.681741e-02	-2.613504e-02	-2.533820e-02	-2.442750e-02	-2.340508e-02	-2.227499e-02	-2.104357e-02	-1.971972e-02	-1.831518e-02	-1.684454e-02	-1.532513e-02	-1.377672e-02	-1.222092e-02	-1.068047e-02	-9.178363e-03	-7.736873e-03	-6.376621e-03	-5.115730e-03	-3.969142e-03	-2.948139e-03	-2.060101e-03	-1.308466e-03	-6.928237e-04	-2.092213e-04	1.494086e-04	3.929858e-04	5.339421e-04	5.863714e-04	5.658909e-04	4.906035e-04	3.791806e-04	2.506984e-04	1.304952e-04	3.985492e-05	0.000000e+00	
0.000000e+00	5.931283e-06	-7.185195e-07	-3.565769e-05	-1.047828e-04	-2.196447e-04	-3.874393e-04	-6.113659e-04	-8.963239e-04	-1.246865e-03	-1.666006e-03	-2.156933e-03	-2.722590e-03	-3.365009e-03	-4.085428e-03	-4.883965e-03	-5.759200e-03	-6.707911e-03	-7.724877e-03	-8.802806e-03	-9.932410e-03	-1.110263e-02	-1.230101e-02	-1.351410e-02	-1.472802e-02	-1.592897e-02	-1.710367e-02	-1.823979e-02	-1.932619e-02	-2.035313e-02	-2.131228e-02	-2.219667e-02	-2.300052e-02	-2.371912e-02	-2.434859e-02	-2.488570e-02	-2.532768e-02	-2.567210e-02	-2.591674e-02	-2.605953e-02	-2.609848e-02	-2.603172e-02	-2.585748e-02	-2.557421e-02	-2.518061e-02	-2.467588e-02	-2.405980e-02	-2.333300e-02	-2.249723e-02	-2.155560e-02	-2.051289e-02	-1.937579e-02	-1.815313e-02	-1.685604e-02	-1.549794e-02	-1.409449e-02	-1.266329e-02	-1.122346e-02	-9.795130e-03	-8.398690e-03	-7.054101e-03	-5.780121e-03	-4.593599e-03	-3.508879e-03	-2.537331e-03	-1.687051e-03	-9.627136e-04	-3.655766e-04	1.063619e-04	4.582076e-04	6.978822e-04	8.354280e-04	8.830664e-04	8.551720e-04	7.663390e-04	6.324462e-04	4.731258e-04	3.070517e-04	1.527482e-04	4.033941e-05	-2.763553e-17	
2.762906e-17	1.302601e-05	2.882520e-05	3.489254e-05	1.186816e-05	-4.853366e-05	-1.516754e-04	-3.042097e-04	-5.117186e-04	-7.775436e-04	-1.104823e-03	-1.497010e-03	-1.956573e-03	-2.485582e-03	-3.085865e-03	-3.758392e-03	-4.503106e-03	-5.318638e-03	-6.201985e-03	-7.148351e-03	-8.151046e-03	-9.201524e-03	-1.028956e-02	-1.140351e-02	-1.253069e-02	-1.365783e-02	-1.477151e-02	-1.585858e-02	-1.690661e-02	-1.790411e-02	-1.884081e-02	-1.970769e-02	-2.049703e-02	-2.120234e-02	-2.181820e-02	-2.234017e-02	-2.276458e-02	-2.308841e-02	-2.330915e-02	-2.342473e-02	-2.343342e-02	-2.333385e-02	-2.312504e-02	-2.280643e-02	-2.237800e-02	-2.184041e-02	-2.119518e-02	-2.044483e-02	-1.959316e-02	-1.864541e-02	-1.760844e-02	-1.649093e-02	-1.530343e-02	-1.405841e-02	-1.277012e-02	-1.145445e-02	-1.012855e-02	-8.810447e-03	-7.518473e-03	-6.270703e-03	-5.084338e-03	-3.975111e-03	-2.956753e-03	-2.040547e-03	-1.235004e-03	-5.456402e-04	2.508256e-05	4.777659e-04	8.159271e-04	1.045642e-03	1.175605e-03	1.216550e-03	1.180259e-03	1.080495e-03	9.323457e-04	7.503298e-04	5.500521e-04	3.517286e-04	1.780155e-04	4.815325e-05	-2.763534e-17	
0.000000e+00	3.520201e-06	4.815414e-05	8.707410e-05	9.960959e-05	8.901148e-05	4.227838e-05	-4.872549e-05	-1.865653e-04	-3.754631e-04	-6.191454e-04	-9.198608e-04	-1.279618e-03	-1.700509e-03	-2.184349e-03	-2.732542e-03	-3.345950e-03	-4.024571e-03	-4.767233e-03	-5.571355e-03	-6.432749e-03	-7.345516e-03	-8.302046e-03	-9.293119e-03	-1.030812e-02	-1.133531e-02	-1.236220e-02	-1.337596e-02	-1.436377e-02	-1.531320e-02	-1.621257e-02	-1.705112e-02	-1.781921e-02	-1.850839e-02	-1.911141e-02	-1.962217e-02	-2.003566e-02	-2.034783e-02	-2.055551e-02	-2.065633e-02	-2.064863e-02	-2.053145e-02	-2.030448e-02	-1.996818e-02	-1.952377e-02	-1.897336e-02	-1.832008e-02	-1.756820e-02	-1.672331e-02	-1.579239e-02	-1.478398e-02	-1.370817e-02	-1.257666e-02	-1.140267e-02	-1.020075e-02	-8.986546e-03	-7.776455e-03	-6.587210e-03	-5.435401e-03	-4.336964e-03	-3.306681e-03	-2.357696e-03	-1.501095e-03	-7.455609e-04	-9.713053e-05	4.409574e-04	8.682817e-04	1.187173e-03	1.402589e-03	1.521763e-03	1.553865e-03	1.509958e-03	1.402470e-03	1.243916e-03	1.047656e-03	8.301341e-04	6.045433e-04	3.825739e-04	1.971717e-04	6.712506e-05	-2.763504e-17	
2.762968e-17	4.480670e-05	8.676532e-05	1.257548e-04	1.688689e-04	1.957054e-04	1.904408e-04	1.509225e-04	7.298164e-05	-5.040700e-05	-2.206431e-04	-4.390775e-04	-7.080018e-04	-1.028739e-03	-1.402866e-03	-1.831964e-03	-2.317285e-03	-2.859737e-03	-3.459476e-03	-4.115676e-03	-4.826308e-03	-5.587916e-03	-6.395531e-03	-7.242624e-03	-8.121163e-03	-9.021748e-03	-9.933829e-03	-1.084598e-02	-1.174622e-02	-1.262237e-02	-1.346234e-02	-1.425450e-02	-1.498789e-02	-1.565248e-02	-1.623924e-02	-1.674033e-02	-1.714904e-02	-1.745988e-02	-1.766849e-02	-1.777165e-02	-1.776722e-02	-1.765411e-02	-1.743228e-02	-1.710274e-02	-1.666760e-02	-1.613006e-02	-1.549455e-02	-1.476676e-02	-1.395368e-02	-1.306371e-02	-1.210663e-02	-1.109360e-02	-1.003710e-02	-8.950731e-03	-7.849077e-03	-6.747371e-03	-5.661168e-03	-4.605947e-03	-3.596678e-03	-2.647371e-03	-1.770651e-03	-9.773481e-04	-2.761518e-04	3.266345e-04	8.273017e-04	1.224793e-03	1.520618e-03	1.718853e-03	1.825698e-03	1.849302e-03	1.799656e-03	1.687070e-03	1.523782e-03	1.323323e-03	1.095213e-03	8.531892e-04	6.149254e-04	3.875558e-04	1.789491e-04	3.253281e-05	0.000000e+00	
0.000000e+00	4.628889e-06	5.825298e-05	1.366734e-04	2.015329e-04	2.539256e-04	2.840405e-04	2.876133e-04	2.560795e-04	1.862694e-04	7.887468e-05	-6.882855e-05	-2.576867e-04	-4.882778e-04	-7.621168e-04	-1.080366e-03	-1.444430e-03	-1.855666e-03	-2.314994e-03	-2.822841e-03	-3.378785e-03	-3.981366e-03	-4.627940e-03	-5.314534e-03	-6.035813e-03	-6.785082e-03	-7.554371e-03	-8.334574e-03	-9.115654e-03	-9.886884e-03	-1.063712e-02	-1.135511e-02	-1.202972e-02	-1.265029e-02	-1.320678e-02	-1.369002e-02	-1.409185e-02	-1.440524e-02	-1.462438e-02	-1.474475e-02	-1.476312e-02	-1.467760e-02	-1.448767e-02	-1.419415e-02	-1.379928e-02	-1.330666e-02	-1.272132e-02	-1.204973e-02	-1.129974e-02	-1.048062e-02	-9.602957e-03	-8.678558e-03	-7.720327e-03	-6.742048e-03	-5.758130e-03	-4.783299e-03	-3.832244e-03	-2.919227e-03	-2.057677e-03	-1.259785e-03	-5.361180e-04	1.047039e-04	6.563049e-04	1.114718e-03	1.478451e-03	1.748572e-03	1.928394e-03	2.023389e-03	2.041006e-03	1.989606e-03	1.879333e-03	1.720829e-03	1.523504e-03	1.300861e-03	1.064166e-03	8.214477e-04	5.871087e-04	3.722531e-04	2.014578e-04	6.918504e-05	-2.763476e-17	
-2.762914e-17	-1.868128e-05	5.072034e-05	1.329443e-04	1.994995e-04	2.694152e-04	3.247132e-04	3.525362e-04	3.531548e-04	3.250146e-04	2.663119e-04	1.766294e-04	5.572034e-05	-9.683784e-05	-2.817381e-04	-4.999410e-04	-7.526609e-04	-1.041265e-03	-1.367063e-03	-1.731111e-03	-2.134007e-03	-2.575686e-03	-3.055248e-03	-3.570824e-03	-4.119471e-03	-4.697113e-03	-5.298523e-03	-5.917362e-03	-6.546255e-03	-7.176923e-03	-7.800351e-03	-8.406989e-03	-8.986983e-03	-9.530411e-03	-1.002753e-02	-1.046899e-02	-1.084608e-02	-1.115092e-02	-1.137660e-02	-1.151739e-02	-1.156882e-02	-1.152779e-02	-1.139268e-02	-1.116338e-02	-1.084137e-02	-1.042970e-02	-9.933060e-03	-9.357700e-03	-8.711417e-03	-8.003470e-03	-7.244451e-03	-6.446129e-03	-5.621235e-03	-4.783203e-03	-3.945867e-03	-3.123108e-03	-2.328485e-03	-1.574840e-03	-8.739029e-04	-2.359240e-04	3.306581e-04	8.194813e-04	1.226447e-03	1.549801e-03	1.790121e-03	1.950184e-03	2.034723e-03	2.050136e-03	2.004098e-03	1.905119e-03	1.762244e-03	1.584790e-03	1.382154e-03	1.162969e-03	9.370595e-04	7.181467e-04	5.106364e-04	3.168358e-04	1.754550e-04	8.170880e-05	2.763505e-17	
0.000000e+00	5.459563e-05	7.551708e-05	1.274536e-04	1.741066e-04	2.493527e-04	3.058618e-04	3.348783e-04	3.561620e-04	3.525478e-04	3.270495e-04	2.825644e-04	2.154281e-04	1.277745e-04	1.894409e-05	-1.121218e-04	-2.657364e-04	-4.433699e-04	-6.462048e-04	-8.753614e-04	-1.131934e-03	-1.416517e-03	-1.729278e-03	-2.069782e-03	-2.436859e-03	-2.828581e-03	-3.242170e-03	-3.673978e-03	-4.119496e-03	-4.573378e-03	-5.029515e-03	-5.481131e-03	-5.920915e-03	-6.341180e-03	-6.734034e-03	-7.091576e-03	-7.406090e-03	-7.670248e-03	-7.877307e-03	-8.021294e-03	-8.097187e-03	-8.101076e-03	-8.030305e-03	-7.883602e-03	-7.661169e-03	-7.364758e-03	-6.997711e-03	-6.564955e-03	-6.072964e-03	-5.529672e-03	-4.944333e-03	-4.327328e-03	-3.689922e-03	-3.043977e-03	-2.401608e-03	-1.774826e-03	-1.175147e-03	-6.132159e-04	-9.845069e-05	3.613070e-04	7.599999e-04	1.093561e-03	1.360056e-03	1.559461e-03	1.693842e-03	1.766986e-03	1.783698e-03	1.750750e-03	1.674642e-03	1.562177e-03	1.422708e-03	1.259736e-03	1.082666e-03	9.016294e-04	7.081302e-04	5.303547e-04	3.727334e-04	2.071353e-04	8.505715e-05	-1.039284e-05	0.000000e+00	
0.000000e+00	-8.973721e-05	-1.501541e-05	5.284078e-05	1.056272e-04	1.653358e-04	1.937004e-04	2.260559e-04	2.455206e-04	2.493333e-04	2.464012e-04	2.303554e-04	2.037374e-04	1.674717e-04	1.200923e-04	6.238835e-05	-6.444573e-06	-8.722209e-05	-1.805199e-04	-2.873583e-04	-4.085001e-04	-5.446023e-04	-6.961758e-04	-8.633913e-04	-1.046116e-03	-1.243825e-03	-1.455546e-03	-1.679844e-03	-1.914776e-03	-2.157891e-03	-2.406228e-03	-2.656344e-03	-2.904355e-03	-3.145998e-03	-3.376716e-03	-3.591755e-03	-3.786277e-03	-3.955485e-03	-4.094763e-03	-4.199808e-03	-4.266779e-03	-4.292434e-03	-4.274268e-03	-4.210637e-03	-4.100869e-03	-3.945353e-03	-3.745604e-03	-3.504295e-03	-3.225248e-03	-2.913383e-03	-2.574623e-03	-2.215748e-03	-1.844199e-03	-1.467849e-03	-1.094725e-03	-7.327240e-04	-3.893184e-04	-7.125399e-05	2.156874e-04	4.669052e-04	6.791672e-04	8.505936e-04	9.807731e-04	1.070667e-03	1.122222e-03	1.138753e-03	1.124003e-03	1.081975e-03	1.018194e-03	9.358382e-04	8.398101e-04	7.362604e-04	6.225571e-04	5.103342e-04	4.009432e-04	2.835222e-04	1.982459e-04	1.187182e-04	8.233589e-05	9.727163e-05	0.000000e+00	
0.000000e+00	0.000000e+00	0.000000e+00	0.000000e+00	-2.762879e-17	-2.762974e-17	0.000000e+00	0.000000e+00	-2.762960e-17	0.000000e+00	0.000000e+00	0.000000e+00	0.000000e+00	0.000000e+00	0.000000e+00	0.000000e+00	0.000000e+00	0.000000e+00	0.000000e+00	2.763126e-17	0.000000e+00	2.763173e-17	0.000000e+00	0.000000e+00	-2.763248e-17	0.000000e+00	-2.763300e-17	-2.763324e-17	0.000000e+00	0.000000e+00	0.000000e+00	0.000000e+00	0.000000e+00	0.000000e+00	0.000000e+00	0.000000e+00	0.000000e+00	-2.763404e-17	0.000000e+00	0.000000e+00	0.000000e+00	-2.763292e-17	0.000000e+00	0.000000e+00	0.000000e+00	2.763120e-17	0.000000e+00	0.000000e+00	0.000000e+00	0.000000e+00	0.000000e+00	2.762925e-17	0.000000e+00	0.000000e+00	0.000000e+00	0.000000e+00	0.000000e+00	0.000000e+00	0.000000e+00	0.000000e+00	0.000000e+00	-2.763177e-17	0.000000e+00	0.000000e+00	-2.763312e-17	0.000000e+00	0.000000e+00	0.000000e+00	0.000000e+00	-2.763473e-17	2.763496e-17	0.000000e+00	0.000000e+00	0.000000e+00	2.763516e-17	2.763585e-17	2.763500e-17	0.000000e+00	0.000000e+00	0.000000e+00	2.763862e-17	
