0.000000	0.000000e+00
0.012500	7.332436e-02
0.025000	1.328948e-01
0.037500	1.798348e-01
0.050000	2.160313e-01
0.062500	2.439826e-01
0.075000	2.661433e-01
0.087500	2.843959e-01
0.100000	2.998508e-01
0.112500	3.129452e-01
0.125000	3.236850e-01
0.137500	3.318880e-01
0.150000	3.373540e-01
0.162500	3.399576e-01
0.175000	3.396849e-01
0.187500	3.366382e-01
0.200000	3.310252e-01
0.212500	3.231384e-01
0.225000	3.133284e-01
0.237500	3.019756e-01
0.250000	2.894617e-01
0.262500	2.761436e-01
0.275000	2.623349e-01
0.287500	2.482928e-01
0.300000	2.342131e-01
0.312500	2.202320e-01
0.325000	2.064325e-01
0.337500	1.928537e-01
0.350000	1.795020e-01
0.362500	1.663616e-01
0.375000	1.534036e-01
0.387500	1.405935e-01
0.400000	1.278967e-01
0.412500	1.152813e-01
0.425000	1.027202e-01
0.437500	9.019169e-02
0.450000	7.767887e-02
0.462500	6.516900e-02
0.475000	5.265254e-02
0.487500	4.012211e-02
0.500000	2.757168e-02
0.512500	1.499583e-02
0.525000	2.389263e-03
0.537500	-1.025349e-02
0.550000	-2.293821e-02
0.562500	-3.567097e-02
0.575000	-4.845791e-02
0.587500	-6.130495e-02
0.600000	-7.421733e-02
0.612500	-8.719898e-02
0.625000	-1.002518e-01
0.637500	-1.133750e-01
0.650000	-1.265641e-01
0.662500	-1.398102e-01
0.675000	-1.531002e-01
0.687500	-1.664163e-01
0.700000	-1.797387e-01
0.712500	-1.930490e-01
0.725000	-2.063381e-01
0.737500	-2.196185e-01
0.750000	-2.329435e-01
0.762500	-2.464350e-01
0.775000	-2.603171e-01
0.787500	-2.749520e-01
0.800000	-2.908645e-01
0.812500	-3.087296e-01
0.825000	-3.292846e-01
0.837500	-3.531213e-01
0.850000	-3.803235e-01
0.862500	-4.099708e-01
0.875000	-4.396248e-01
0.887500	-4.650414e-01
0.900000	-4.804067e-01
0.912500	-4.793006e-01
0.925000	-4.563114e-01
0.937500	-4.088955e-01
0.950000	-3.388454e-01
0.962500	-2.526742e-01
0.975000	-1.604528e-01
0.987500	-7.322220e-02
1.000000	0.000000e+00
