0.000000	0.000000e+00
0.006250	-2.314608e-02
0.012500	-4.502398e-02
0.018750	-6.573657e-02
0.025000	-8.537439e-02
0.031250	-1.040400e-01
0.037500	-1.218500e-01
0.043750	-1.389326e-01
0.050000	-1.554192e-01
0.056250	-1.714348e-01
0.062500	-1.870866e-01
0.068750	-2.024543e-01
0.075000	-2.175839e-01
0.081250	-2.324836e-01
0.087500	-2.471247e-01
0.093750	-2.614444e-01
0.100000	-2.753519e-01
0.106250	-2.887355e-01
0.112500	-3.014700e-01
0.118750	-3.134249e-01
0.125000	-3.244710e-01
0.131250	-3.344868e-01
0.137500	-3.433643e-01
0.143750	-3.510127e-01
0.150000	-3.573626e-01
0.156250	-3.623683e-01
0.162500	-3.660091e-01
0.168750	-3.682897e-01
0.175000	-3.692398e-01
0.181250	-3.689126e-01
0.187500	-3.673817e-01
0.193750	-3.647388e-01
0.200000	-3.610889e-01
0.206250	-3.565472e-01
0.212500	-3.512342e-01
0.218750	-3.452724e-01
0.225000	-3.387818e-01
0.231250	-3.318774e-01
0.237500	-3.246659e-01
0.243750	-3.172442e-01
0.250000	-3.096978e-01
0.256250	-3.020999e-01
0.262500	-2.945112e-01
0.268750	-2.869804e-01
0.275000	-2.795449e-01
0.281250	-2.722311e-01
0.287500	-2.650566e-01
0.293750	-2.580305e-01
0.300000	-2.511555e-01
0.306250	-2.444286e-01
0.312500	-2.378429e-01
0.318750	-2.313883e-01
0.325000	-2.250525e-01
0.331250	-2.188223e-01
0.337500	-2.126839e-01
0.343750	-2.066235e-01
0.350000	-2.006279e-01
0.356250	-1.946849e-01
0.362500	-1.887832e-01
0.368750	-1.829127e-01
0.375000	-1.770646e-01
0.381250	-1.712314e-01
0.387500	-1.654066e-01
0.393750	-1.595850e-01
0.400000	-1.537624e-01
0.406250	-1.479353e-01
0.412500	-1.421013e-01
0.418750	-1.362584e-01
0.425000	-1.304052e-01
0.431250	-1.245408e-01
0.437500	-1.186645e-01
0.443750	-1.127762e-01
0.450000	-1.068755e-01
0.456250	-1.009625e-01
0.462500	-9.503718e-02
0.468750	-8.909966e-02
0.475000	-8.314997e-02
0.481250	-7.718815e-02
0.487500	-7.121416e-02
0.493750	-6.522790e-02
0.500000	-5.922921e-02
0.506250	-5.321782e-02
0.512500	-4.719339e-02
0.518750	-4.115550e-02
0.525000	-3.510361e-02
0.531250	-2.903715e-02
0.537500	-2.295541e-02
0.543750	-1.685764e-02
0.550000	-1.074299e-02
0.556250	-4.610543e-03
0.562500	1.540699e-03
0.568750	7.711808e-03
0.575000	1.390393e-02
0.581250	2.011831e-02
0.587500	2.635624e-02
0.593750	3.261912e-02
0.600000	3.890845e-02
0.606250	4.522579e-02
0.612500	5.157282e-02
0.618750	5.795132e-02
0.625000	6.436318e-02
0.631250	7.081039e-02
0.637500	7.729505e-02
0.643750	8.381938e-02
0.650000	9.038567e-02
0.656250	9.699635e-02
0.662500	1.036539e-01
0.668750	1.103609e-01
0.675000	1.171198e-01
0.681250	1.239334e-01
0.687500	1.308041e-01
0.693750	1.377344e-01
0.700000	1.447265e-01
0.706250	1.517825e-01
0.712500	1.589042e-01
0.718750	1.660929e-01
0.725000	1.733493e-01
0.731250	1.806736e-01
0.737500	1.880651e-01
0.743750	1.955223e-01
0.750000	2.030425e-01
0.756250	2.106219e-01
0.762500	2.182551e-01
0.768750	2.259354e-01
0.775000	2.336543e-01
0.781250	2.414016e-01
0.787500	2.491651e-01
0.793750	2.569304e-01
0.800000	2.646813e-01
0.806250	2.723993e-01
0.812500	2.800638e-01
0.818750	2.876520e-01
0.825000	2.951391e-01
0.831250	3.024984e-01
0.837500	3.097015e-01
0.843750	3.167183e-01
0.850000	3.235178e-01
0.856250	3.300682e-01
0.862500	3.363382e-01
0.868750	3.422980e-01
0.875000	3.479227e-01
0.881250	3.531957e-01
0.887500	3.581173e-01
0.893750	3.627161e-01
0.900000	3.670680e-01
0.906250	3.713242e-01
0.912500	3.757500e-01
0.918750	3.807741e-01
0.925000	3.870476e-01
0.931250	3.955029e-01
0.937500	4.074004e-01
0.943750	4.243381e-01
0.950000	4.481968e-01
0.956250	4.809871e-01
0.962500	5.245720e-01
0.968750	5.802656e-01
0.975000	6.483530e-01
0.981250	7.276356e-01
0.987500	8.152749e-01
0.993750	9.062985e-01
1.000000	1.000000e+00
