0.000000	0.000000e+00
0.031250	1.620484e-01
0.062500	3.135631e-01
0.093750	4.545479e-01
0.125000	5.850102e-01
0.156250	7.049609e-01
0.187500	8.144131e-01
0.218750	9.133813e-01
0.250000	1.001881e+00
0.281250	1.079926e+00
0.312500	1.147532e+00
0.343750	1.204712e+00
0.375000	1.251479e+00
0.406250	1.287841e+00
0.437500	1.313808e+00
0.468750	1.329386e+00
0.500000	1.334578e+00
0.531250	1.329386e+00
0.562500	1.313808e+00
0.593750	1.287841e+00
0.625000	1.251479e+00
0.656250	1.204712e+00
0.687500	1.147532e+00
0.718750	1.079926e+00
0.750000	1.001881e+00
0.781250	9.133813e-01
0.812500	8.144131e-01
0.843750	7.049609e-01
0.875000	5.850102e-01
0.906250	4.545479e-01
0.937500	3.135631e-01
0.968750	1.620484e-01
1.000000	5.519832e-16
