0.000000	0.000000e+00
0.007813	4.158440e-02
0.015625	8.249187e-02
0.023438	1.227229e-01
0.031250	1.622776e-01
0.039063	2.011561e-01
0.046875	2.393589e-01
0.054688	2.768861e-01
0.062500	3.137382e-01
0.070313	3.499155e-01
0.078125	3.854185e-01
0.085938	4.202478e-01
0.093750	4.544039e-01
0.101563	4.878874e-01
0.109375	5.206990e-01
0.117188	5.528395e-01
0.125000	5.843095e-01
0.132813	6.151100e-01
0.140625	6.452416e-01
0.148438	6.747053e-01
0.156250	7.035019e-01
0.164063	7.316325e-01
0.171875	7.590979e-01
0.179688	7.858990e-01
0.187500	8.120370e-01
0.195313	8.375127e-01
0.203125	8.623272e-01
0.210938	8.864814e-01
0.218750	9.099765e-01
0.226563	9.328133e-01
0.234375	9.549930e-01
0.242188	9.765166e-01
0.250000	9.973851e-01
0.257813	1.017599e+00
0.265625	1.037161e+00
0.273438	1.056070e+00
0.281250	1.074328e+00
0.289063	1.091936e+00
0.296875	1.108894e+00
0.304688	1.125204e+00
0.312500	1.140867e+00
0.320313	1.155883e+00
0.328125	1.170254e+00
0.335938	1.183980e+00
0.343750	1.197061e+00
0.351563	1.209500e+00
0.359375	1.221296e+00
0.367188	1.232450e+00
0.375000	1.242963e+00
0.382813	1.252835e+00
0.390625	1.262068e+00
0.398438	1.270661e+00
0.406250	1.278615e+00
0.414063	1.285932e+00
0.421875	1.292610e+00
0.429688	1.298651e+00
0.437500	1.304056e+00
0.445313	1.308823e+00
0.453125	1.312954e+00
0.460938	1.316450e+00
0.468750	1.319309e+00
0.476563	1.321533e+00
0.484375	1.323121e+00
0.492188	1.324074e+00
0.500000	1.324392e+00
0.507813	1.324074e+00
0.515625	1.323121e+00
0.523438	1.321533e+00
0.531250	1.319309e+00
0.539063	1.316450e+00
0.546875	1.312954e+00
0.554688	1.308823e+00
0.562500	1.304056e+00
0.570313	1.298651e+00
0.578125	1.292610e+00
0.585938	1.285932e+00
0.593750	1.278615e+00
0.601563	1.270661e+00
0.609375	1.262068e+00
0.617188	1.252835e+00
0.625000	1.242963e+00
0.632813	1.232450e+00
0.640625	1.221296e+00
0.648438	1.209500e+00
0.656250	1.197061e+00
0.664063	1.183980e+00
0.671875	1.170254e+00
0.679688	1.155883e+00
0.687500	1.140867e+00
0.695313	1.125204e+00
0.703125	1.108894e+00
0.710938	1.091936e+00
0.718750	1.074328e+00
0.726563	1.056070e+00
0.734375	1.037161e+00
0.742188	1.017599e+00
0.750000	9.973851e-01
0.757813	9.765166e-01
0.765625	9.549930e-01
0.773438	9.328133e-01
0.781250	9.099765e-01
0.789063	8.864814e-01
0.796875	8.623272e-01
0.804688	8.375127e-01
0.812500	8.120370e-01
0.820313	7.858990e-01
0.828125	7.590979e-01
0.835938	7.316325e-01
0.843750	7.035019e-01
0.851563	6.747053e-01
0.859375	6.452416e-01
0.867188	6.151100e-01
0.875000	5.843095e-01
0.882813	5.528395e-01
0.890625	5.206990e-01
0.898438	4.878874e-01
0.906250	4.544039e-01
0.914063	4.202478e-01
0.921875	3.854185e-01
0.929688	3.499155e-01
0.937500	3.137382e-01
0.945313	2.768861e-01
0.953125	2.393589e-01
0.960938	2.011561e-01
0.968750	1.622776e-01
0.976563	1.227229e-01
0.984375	8.249187e-02
0.992188	4.158440e-02
1.000000	0.000000e+00
